"cust_ac_no","balance","acct_tag","status","tagging"
"912820510","31303.66","wline","O","prev bulk stop"
"912553844","1799.0","wline","O","prev bulk stop"
"834294481","1069.9","wline","O","prev bulk stop"
"919653735","2523.86","wline","O","prev bulk stop"
"872929176","-1515.96","wline","O","below threshold"
"910097758","223.1","wline","O","prev bulk stop"
"922405070","1588.63","wline","O","prev bulk stop"
"911729162","-21880.22","wline","O","below threshold"
"879754504","-1270.56","wline","O","below threshold"
"883269925","2137.47","wline","O","prev bulk stop"
"884793180","966.97","wline","O","prev bulk stop"
"918693655","-184.44","wline","O","below threshold"
"872857047","-14612.15","wline","CAN","below threshold"
"874856777","175.53","wline","O","prev bulk stop"
"877727414","0.0","wline","O","below threshold"
"902437493","8565.23","wline","CAN","below threshold"
"904184745","21121.46","wline","CAN","below threshold"
"917446413","818.66","wline","O","prev bulk stop"
"878331073","23.18","wline","O","prev bulk stop"
"880563506","2247.14","wline","O","prev bulk stop"
"916436747","2669.19","wline","O","prev bulk stop"
"922394793","3255.27","wline","O","prev bulk stop"
"834164533","7696.92","wline","O","prev bulk stop"
"910346847","-5667.49","wline","O","below threshold"
"883954480","-6030.04","wline","O","below threshold"
"903927793","32418.64","wline","CAN","below threshold"
"914435651","33.91","wline","O","prev bulk stop"
"901284775","27099.75","wline","O","prev bulk stop"
"917985654","99.92","wline","O","prev bulk stop"
"914357380","1932.81","wline","O","prev bulk stop"
"877967237","11499.0","wline","O","prev bulk stop"
"907380854","0.0","wline","CAN","below threshold"
"883268105","2789.13","wline","O","prev bulk stop"
"883271355","2746.87","wline","O","prev bulk stop"
"922404545","3409.6","wline","O","prev bulk stop"
"924293664","1933.91","wline","O","prev bulk stop"
"920666494","8979.37","wline","O","prev bulk stop"
"920668684","8872.97","wline","O","prev bulk stop"
"884754652","-2301.96","wline","O","below threshold"
"911505990","322.06","wline","O","prev bulk stop"
"908673151","-6714.12","wline","O","below threshold"
"880565468","1498.58","wline","O","prev bulk stop"
"916431499","2681.83","wline","O","prev bulk stop"
"106667620","-2224.99","wline","O","below threshold"
"872923774","-1248.24","wline","O","below threshold"
"915374743","-6810.37","wline","O","below threshold"
"917140577","-1654.87","wline","O","below threshold"
"922410877","3255.11","wline","O","prev bulk stop"
"920738144","1069.52","wline","O","prev bulk stop"
"920665830","8006.32","wline","O","prev bulk stop"
"919999064","9032.57","wline","O","prev bulk stop"
"900924644","29950.19","wline","O","prev bulk stop"
"901387973","34713.64","wline","O","prev bulk stop"
"853693203","-981.16","wline","O","below threshold"
"876623861","6443.33","wline","O","prev bulk stop"
"922414495","899.0","wline","O","prev bulk stop"
"884930074","40070.94","wline","O","prev bulk stop"
"900788758","35010.64","wline","O","prev bulk stop"
"916741256","0.0","wline","O","below threshold"
"854756007","23.2","wline","O","prev bulk stop"
"918566120","6878.72","wline","O","prev bulk stop"
"910636920","2543.85","wline","O","prev bulk stop"
"914554768","4673.72","wline","O","prev bulk stop"
"922982763","-2987.36","wline","O","below threshold"
"877377213","-87.35","wline","O","below threshold"
"911935732","9159.7","wline","O","prev bulk stop"
"900788795","16376.14","wline","CAN","below threshold"
"884542354","15202.62","wline","O","prev bulk stop"
"872906704","-15877.1","wline","CAN","below threshold"
"921217791","-31.65","wline","O","below threshold"
"879132900","-98.0","wline","O","below threshold"
"916390624","2783.57","wline","O","prev bulk stop"
"921943788","-2521.79","wline","O","below threshold"
"918688842","17128.74","wline","O","prev bulk stop"
"919981325","12327.71","wline","CAN","below threshold"
"922016143","8081.23","wline","O","prev bulk stop"
"878236149","0.0","wline","O","below threshold"
"922982726","-2108.4","wline","O","below threshold"
"919612071","1899.0","wline","O","prev bulk stop"
"876966581","4210.54","wline","O","prev bulk stop"
"888072029","187.8","wline","O","prev bulk stop"
"842489813","1070.07","wline","O","prev bulk stop"
"917337012","2120.64","wline","O","prev bulk stop"
"910395320","2543.61","wline","O","prev bulk stop"
"922946580","3560.97","wline","O","prev bulk stop"
"902655171","5564.09","wline","CAN","below threshold"
"908739875","143.62","wline","O","prev bulk stop"
"885162251","41807.07","wline","O","prev bulk stop"
"900925040","19062.63","wline","CAN","below threshold"
"902655110","29008.56","wline","O","prev bulk stop"
"883271515","3442.08","wline","O","prev bulk stop"
"888642701","2581.11","wline","O","prev bulk stop"
"914593303","2543.61","wline","O","prev bulk stop"
"883548834","10025.58","wline","O","prev bulk stop"
"877444360","-6883.37","wline","O","below threshold"
"921427390","-1572.8","wline","O","below threshold"
"915407508","-2215.66","wline","O","below threshold"
"883954511","-6030.04","wline","O","below threshold"
"900582885","-4963.31","wline","O","below threshold"
"880596132","4069.88","wline","O","prev bulk stop"
"917661358","0.0","wline","O","below threshold"
"885949582","2063.09","wline","O","prev bulk stop"
"879930909","135.56","wline","O","prev bulk stop"
"900788710","34765.88","wline","O","prev bulk stop"
"900818325","4629.94","wline","CAN","below threshold"
"883269396","2944.8","wline","O","prev bulk stop"
"908692663","20181.2","wline","O","prev bulk stop"
"901735425","33467.14","wline","O","prev bulk stop"
"902301147","32517.64","wline","O","prev bulk stop"
"908726702","0.0","wline","O","below threshold"
"921926466","11520.0","wline","O","prev bulk stop"
"916436723","2639.09","wline","O","prev bulk stop"
"920994416","2421.46","wline","O","prev bulk stop"
"916344080","13892.97","wline","O","prev bulk stop"
"884634680","13919.52","wline","O","prev bulk stop"
"922982671","-3131.99","wline","O","below threshold"
"846381672","44.63","wline","O","prev bulk stop"
"925973090","2173.03","wline","O","prev bulk stop"
"912818629","3499.0","wline","O","prev bulk stop"
"883268848","2944.77","wline","O","prev bulk stop"
"917337048","3400.32","wline","O","prev bulk stop"
"840176120","4379.38","wline","O","prev bulk stop"
"918813713","2949.75","wline","O","prev bulk stop"
"901870715","32616.64","wline","O","prev bulk stop"
"916436692","3716.08","wline","O","prev bulk stop"
"910395332","2543.61","wline","O","prev bulk stop"
"908668177","-5742.27","wline","O","below threshold"
"919999090","9011.14","wline","O","prev bulk stop"
"922565273","0.0","wline","O","below threshold"
"900961209","13812.48","wline","CAN","below threshold"
"901540947","-461.66","wline","CAN","below threshold"
"888455956","-2025.52","wline","O","below threshold"
"876281174","-1248.24","wline","O","below threshold"
"922216480","-911.26","wline","O","below threshold"
"903471539","-2795.46","wline","O","below threshold"
"916436679","2659.96","wline","O","prev bulk stop"
"884737317","1322.2","wline","O","prev bulk stop"
"876332812","12148.25","wline","O","prev bulk stop"
"901481513","5045.44","wline","CAN","below threshold"
"904080182","3608.74","wline","CAN","below threshold"
"884635405","-87.12","wline","O","below threshold"
"887374857","143.41","wline","O","prev bulk stop"
"840809356","5270.58","wline","O","prev bulk stop"
"875538877","3478.79","wline","O","prev bulk stop"
"887999187","2502.49","wline","O","prev bulk stop"
"888642610","2615.88","wline","O","prev bulk stop"
"922982775","-7177.57","wline","O","below threshold"
"918813737","2949.75","wline","O","prev bulk stop"
"901864470","51265.84","wline","O","prev bulk stop"
"883270740","2944.8","wline","O","prev bulk stop"
"874855062","4235.51","wline","O","prev bulk stop"
"922394836","3255.11","wline","O","prev bulk stop"
"922404533","4317.1","wline","O","prev bulk stop"
"888789041","-203.13","wline","O","below threshold"
"924178060","3219.88","wline","O","prev bulk stop"
"849251938","-195.88","wline","O","below threshold"
"835092844","7937.23","wline","O","prev bulk stop"
"879896229","25877.55","wline","O","prev bulk stop"
"884927360","38096.74","wline","O","prev bulk stop"
"877450562","3267.97","wline","O","prev bulk stop"
"902842996","0.0","wline","O","below threshold"
"902073681","-4256.22","wline","O","below threshold"
"906491175","8998.0","wline","O","prev bulk stop"
"920604688","0.0","wline","O","below threshold"
"913402911","1830.62","wline","O","prev bulk stop"
"881465793","-25464.57","wline","CAN","below threshold"
"901735216","34416.64","wline","O","prev bulk stop"
"871358586","-3452.28","wline","O","below threshold"
"883294135","1424.3","wline","O","prev bulk stop"
"911159124","3510.53","wline","O","prev bulk stop"
"918458526","-6919.31","wline","O","below threshold"
"921231263","-2989.05","wline","O","below threshold"
"901868338","-2536.62","wline","O","below threshold"
"926066069","3043.44","wline","O","prev bulk stop"
"883267618","2944.8","wline","O","prev bulk stop"
"916436606","2635.2","wline","O","prev bulk stop"
"900788783","35010.64","wline","O","prev bulk stop"
"922982751","-11821.21","wline","O","below threshold"
"923085957","0.0","wline","O","below threshold"
"879155568","0.0","wline","O","below threshold"
"881704956","-2328.26","wline","O","below threshold"
"915926462","0.0","wline","O","below threshold"
"913757875","1939.03","wline","O","prev bulk stop"
"883270278","4421.18","wline","O","prev bulk stop"
"916436680","2657.22","wline","O","prev bulk stop"
"914126541","6381.33","wline","O","prev bulk stop"
"887639391","-5969.93","wline","O","below threshold"
"917992393","-1302.66","wline","O","below threshold"
"911996092","2729.16","wline","O","prev bulk stop"
"912123844","11704.34","wline","O","prev bulk stop"
"873002356","-1515.96","wline","O","below threshold"
"902520290","0.0","wline","O","below threshold"
"887849370","8342.45","wline","O","prev bulk stop"
"881778620","0.0","wline","O","below threshold"
"883943244","-4949.09","wline","O","below threshold"
"880166980","15310.71","wline","O","prev bulk stop"
"918950340","2034.68","wline","O","prev bulk stop"
"917554264","2677.47","wline","O","prev bulk stop"
"916994604","893.57","wline","O","prev bulk stop"
"924329419","8122.96","wline","O","prev bulk stop"
"916243962","0.0","wline","O","below threshold"
"876274933","10909.38","wline","O","prev bulk stop"
"875164408","10493.49","wline","O","prev bulk stop"
"901074157","32913.64","wline","O","prev bulk stop"
"903365847","32418.64","wline","O","prev bulk stop"
"901864388","234.64","wline","CAN","below threshold"
"884550700","-8193.63","wline","O","below threshold"
"925457925","113.26","wline","O","prev bulk stop"
"922394690","3267.83","wline","O","prev bulk stop"
"888099122","-2189.18","wline","O","below threshold"
"866056184","257.72","wline","O","prev bulk stop"
"912018859","2645.62","wline","O","prev bulk stop"
"914589603","3454.82","wline","O","prev bulk stop"
"922982738","-2795.46","wline","O","below threshold"
"924873450","28072.94","wline","O","prev bulk stop"
"900582873","-5373.8","wline","O","below threshold"
"911848950","19053.09","wline","O","prev bulk stop"
"875739405","-5837.34","wline","O","below threshold"
"918853618","0.0","wline","O","below threshold"
"901735228","34614.64","wline","O","prev bulk stop"
"864438178","-1667.68","wline","O","below threshold"
"881332695","2275.28","wline","O","prev bulk stop"
"921883204","29858.13","wline","O","prev bulk stop"
"872912796","-1515.96","wline","O","below threshold"
"908679192","-4826.61","wline","O","below threshold"
"905327549","1899.0","wline","O","prev bulk stop"
"887115116","-1829.41","wline","O","below threshold"
"888859127","2499.0","wline","O","prev bulk stop"
"919946704","9008.72","wline","O","prev bulk stop"
"903511820","32418.64","wline","O","prev bulk stop"
"919011449","-1299.08","wline","O","below threshold"
"923230194","-2867.77","wline","O","below threshold"
"877146773","2195.99","wline","O","prev bulk stop"
"917923768","0.0","wline","CAN","below threshold"
"918542411","0.0","wline","O","below threshold"
"912933263","168.24","wline","O","prev bulk stop"
"925264760","1932.33","wline","O","prev bulk stop"
"914589559","2983.77","wline","O","prev bulk stop"
"922389734","3255.11","wline","O","prev bulk stop"
"842582595","1070.36","wline","O","prev bulk stop"
"922982714","-2891.9","wline","O","below threshold"
"913343410","0.0","wline","O","below threshold"
"885176102","39746.93","wline","CAN","below threshold"
"900822904","33962.14","wline","O","prev bulk stop"
"918325047","-4080.78","wline","O","below threshold"
"888263043","8087.83","wline","O","prev bulk stop"
"903614776","0.01","wline","O","prev bulk stop"
"908327900","4198.0","wline","O","prev bulk stop"
"875991499","4233.46","wline","O","prev bulk stop"
"921214893","-0.01","wline","O","below threshold"
"921882176","6226.73","wline","O","prev bulk stop"
"901481574","33467.14","wline","CAN","below threshold"
"901870703","52531.84","wline","O","prev bulk stop"
"902780387","8589.25","wline","CAN","below threshold"
"887817218","13892.4","wline","O","prev bulk stop"
"875969991","-14529.1","wline","O","below threshold"
"883902108","-43.62","wline","O","below threshold"
"902993344","-1702.95","wline","O","below threshold"
"901213660","-4866.83","wline","O","below threshold"
"876335617","9312.19","wline","O","prev bulk stop"
"884711812","4756.67","wline","O","prev bulk stop"
"921017479","-4388.6","wline","O","below threshold"
"880445796","5109.53","wline","O","prev bulk stop"
"916436538","2144.73","wline","O","prev bulk stop"
"912877678","-184.26","wline","O","below threshold"
"922992953","2899.0","wline","O","prev bulk stop"
"836659156","-1123.73","wline","CAN","below threshold"
"872907960","-1606.35","wline","O","below threshold"
"921506853","0.0","wline","O","below threshold"
"918813750","2949.75","wline","O","prev bulk stop"
"902454385","-71.65","wline","CAN","below threshold"
"880564017","2034.64","wline","O","prev bulk stop"
"910102460","1393.77","wline","O","prev bulk stop"
"922394848","3151.94","wline","O","prev bulk stop"
"843170920","1998.0","wline","O","prev bulk stop"
"883548649","9817.02","wline","O","prev bulk stop"
"882789970","-12296.2","wline","CAN","below threshold"
"869661562","212.18","wline","O","prev bulk stop"
"901057056","34749.34","wline","O","prev bulk stop"
"876333022","-1864.11","wline","O","below threshold"
"880369605","-320.19","wline","O","below threshold"
"922982799","685.84","wline","O","prev bulk stop"
"875537334","7664.53","wline","O","prev bulk stop"
"910395319","3001.86","wline","O","prev bulk stop"
"919838219","-1276.96","wline","O","below threshold"
"905858103","-23.56","wline","O","below threshold"
"881800030","3603.11","wline","O","prev bulk stop"
"914589627","2543.62","wline","O","prev bulk stop"
"919116604","1510.45","wline","O","prev bulk stop"
"876345346","9231.07","wline","O","prev bulk stop"
"900788760","35010.64","wline","O","prev bulk stop"
"901918600","52405.25","wline","O","prev bulk stop"
"902279923","32616.64","wline","O","prev bulk stop"
"922357830","-2898.08","wline","O","below threshold"
"887374869","13863.85","wline","O","prev bulk stop"
"883317313","0.0","wline","O","below threshold"
"924723411","0.0","wline","O","below threshold"
"922380948","0.0","wline","O","below threshold"
"916436735","2658.56","wline","O","prev bulk stop"
"908956894","211.06","wline","O","prev bulk stop"
"923404715","-5351.17","wline","O","below threshold"
"866055728","257.72","wline","O","prev bulk stop"
"919075758","86.45","wline","O","prev bulk stop"
"883951489","-6820.1","wline","O","below threshold"
"922720369","2085.38","wline","O","prev bulk stop"
"884927881","40334.66","wline","O","prev bulk stop"
"901732459","48955.39","wline","O","prev bulk stop"
"901811021","52790.28","wline","O","prev bulk stop"
"909616719","-3240.1","wline","O","below threshold"
"884247064","66.12","wline","CAN","below threshold"
"906761376","-4690.76","wline","O","below threshold"
"911996123","2588.22","wline","O","prev bulk stop"
"885162054","10331.53","wline","CAN","below threshold"
"879374476","24.96","wline","O","prev bulk stop"
"916436599","2951.4","wline","O","prev bulk stop"
"922394904","3255.11","wline","O","prev bulk stop"
"920666550","8969.7","wline","O","prev bulk stop"
"887902450","21098.42","wline","O","prev bulk stop"
"901735413","50442.94","wline","CAN","below threshold"
"900707430","37305.65","wline","O","prev bulk stop"
"915820993","-3140.96","wline","O","below threshold"
"910536538","2068.55","wline","O","prev bulk stop"
"910642439","5139.04","wline","O","prev bulk stop"
"910394199","-4602.06","wline","O","below threshold"
"918869690","2949.75","wline","O","prev bulk stop"
"907043721","-2982.37","wline","O","below threshold"
"920666513","8959.29","wline","O","prev bulk stop"
"902532748","-0.01","wline","O","below threshold"
"876931335","-2891.9","wline","O","below threshold"
"922032493","0.01","wline","O","prev bulk stop"
"926060815","0.0","wline","O","below threshold"
"906251930","-3714.94","wline","O","below threshold"
"913245673","2950.77","wline","O","prev bulk stop"
"869981176","6125.85","wline","CAN","below threshold"
"877433497","2477.47","wline","O","prev bulk stop"
"923232218","3255.23","wline","O","prev bulk stop"
"901969764","52025.44","wline","O","prev bulk stop"
"918314205","3874.0","wline","O","prev bulk stop"
"922410816","3255.11","wline","O","prev bulk stop"
"910104717","19991.93","wline","O","prev bulk stop"
"887472899","14242.01","wline","O","prev bulk stop"
"915761558","2000.73","wline","O","prev bulk stop"
"919961420","9013.22","wline","O","prev bulk stop"
"919999052","8634.22","wline","O","prev bulk stop"
"876236062","-4033.76","wline","O","below threshold"
"925029887","0.0","wline","O","below threshold"
"920157884","0.0","wline","O","below threshold"
"905858084","-27.15","wline","O","below threshold"
"902355346","31667.14","wline","O","prev bulk stop"
"838198668","594.98","wline","O","prev bulk stop"
"911935690","11704.34","wline","O","prev bulk stop"
"900836761","22080.02","wline","CAN","below threshold"
"875097232","10407.28","wline","O","prev bulk stop"
"919251722","-5094.12","wline","O","below threshold"
"888642934","5042.6","wline","O","prev bulk stop"
"831515319","7921.08","wline","O","prev bulk stop"
"927378014","1752.09","wline","O","prev bulk stop"
"916463553","104.94","wline","O","prev bulk stop"
"914489905","24764.21","wline","O","prev bulk stop"
"910398776","-2365.42","wline","O","below threshold"
"866596127","5798.0","wline","O","prev bulk stop"
"911600378","-3240.08","wline","O","below threshold"
"872647726","10983.84","wline","O","prev bulk stop"
"901935889","21985.53","wline","CAN","below threshold"
"920665854","8713.02","wline","O","prev bulk stop"
"919961399","9030.15","wline","O","prev bulk stop"
"918817620","2949.75","wline","O","prev bulk stop"
"884923279","40542.0","wline","CAN","below threshold"
"885106173","28187.77","wline","CAN","below threshold"
"888574459","4191.8","wline","O","prev bulk stop"
"880352727","0.0","wline","O","below threshold"
"920143413","699.0","wline","O","prev bulk stop"
"917336992","2744.07","wline","O","prev bulk stop"
"920874732","2743.37","wline","O","prev bulk stop"
"927022126","3393.24","wline","O","prev bulk stop"
"923418098","4215.44","wline","O","prev bulk stop"
"888573696","8640.94","wline","O","prev bulk stop"
"868830548","560.08","wline","O","prev bulk stop"
"919651336","2529.83","wline","O","prev bulk stop"
"901482859","-0.01","wline","O","below threshold"
"901870696","51392.45","wline","O","prev bulk stop"
"883948370","-249.65","wline","O","below threshold"
"880567333","12584.41","wline","O","prev bulk stop"
"921882164","6226.51","wline","O","prev bulk stop"
"906741170","-5872.31","wline","O","below threshold"
"920666549","9385.87","wline","O","prev bulk stop"
"888582693","0.0","wline","O","below threshold"
"852848084","-3842.93","wline","O","below threshold"
"908979256","-408.09","wline","O","below threshold"
"918869710","2949.75","wline","O","prev bulk stop"
"900716019","36216.65","wline","O","prev bulk stop"
"887911700","-2454.37","wline","O","below threshold"
"922982820","-22847.78","wline","O","below threshold"
"916640088","5792.76","wline","CAN","below threshold"
"913262276","1799.0","wline","O","prev bulk stop"
"919007473","2140.23","wline","O","prev bulk stop"
"922394781","3255.33","wline","O","prev bulk stop"
"927159929","2598.38","wline","O","prev bulk stop"
"863532925","3819.43","wline","O","prev bulk stop"
"903923862","5601.03","wline","O","prev bulk stop"
"922404613","3255.33","wline","O","prev bulk stop"
"916436618","3179.51","wline","O","prev bulk stop"
"904652281","5379.09","wline","O","prev bulk stop"
"873608540","1398.0","wline","O","prev bulk stop"
"901409620","-3533.62","wline","O","below threshold"
"918869708","2949.75","wline","O","prev bulk stop"
"885161788","35418.59","wline","O","prev bulk stop"
"882172853","-3374.02","wline","O","below threshold"
"888428167","2578.15","wline","O","prev bulk stop"
"878437826","82.1","wline","CAN","below threshold"
"918776528","-0.01","wline","O","below threshold"
"919059027","-927.64","wline","O","below threshold"
"917486029","2502.74","wline","O","prev bulk stop"
"909239541","-2242.31","wline","O","below threshold"
"888251413","11442.87","wline","O","prev bulk stop"
"875470448","23255.85","wline","O","prev bulk stop"
"917337036","2965.81","wline","O","prev bulk stop"
"927213662","2898.0","wline","O","prev bulk stop"
"918263839","3786.45","wline","O","prev bulk stop"
"882585660","-15154.49","wline","CAN","below threshold"
"877382850","31279.51","wline","CAN","below threshold"
"926920579","0.0","wline","O","below threshold"
"915057633","1932.91","wline","O","prev bulk stop"
"884620489","-3115.26","wline","O","below threshold"
"880389862","-21.39","wline","O","below threshold"
"882300382","8470.72","wline","O","prev bulk stop"
"902655109","31469.14","wline","O","prev bulk stop"
"903571471","31469.14","wline","O","prev bulk stop"
"921036470","3927.24","wline","O","prev bulk stop"
"884735336","2135.46","wline","O","prev bulk stop"
"914589572","2543.62","wline","O","prev bulk stop"
"926430935","2432.33","wline","O","prev bulk stop"
"922982634","-2987.36","wline","O","below threshold"
"915405080","0.0","wline","O","below threshold"
"918813762","2949.75","wline","O","prev bulk stop"
"919653723","3421.11","wline","O","prev bulk stop"
"902879640","-2370.94","wline","O","below threshold"
"910873900","5319.88","wline","O","prev bulk stop"
"922982806","-13254.71","wline","O","below threshold"
"917727223","3635.5","wline","O","prev bulk stop"
"885180453","2088.5","wline","CAN","below threshold"
"900788771","14755.85","wline","CAN","below threshold"
"835093367","7477.51","wline","O","prev bulk stop"
"912796485","5115.29","wline","O","prev bulk stop"
"905358077","-20.9","wline","O","below threshold"
"922936586","-135.48","wline","CAN","below threshold"
"877340096","4709.63","wline","O","prev bulk stop"
"922083432","799.0","wline","O","prev bulk stop"
"900925063","-1636.76","wline","CAN","below threshold"
"920284129","-793.77","wline","O","below threshold"
"923057264","-3206.95","wline","O","below threshold"
"920711943","1368.09","wline","O","prev bulk stop"
"880538429","10022.64","wline","O","prev bulk stop"
"919981417","8870.34","wline","O","prev bulk stop"
"878596352","-98.0","wline","O","below threshold"
"921286700","3712.33","wline","O","prev bulk stop"
"884284809","-4973.54","wline","O","below threshold"
"876708280","-3520.0","wline","O","below threshold"
"919511192","0.0","wline","O","below threshold"
"920880173","1598.0","wline","O","prev bulk stop"
"901771577","34966.64","wline","O","prev bulk stop"
"900728344","40736.77","wline","O","prev bulk stop"
"918986095","1107.41","wline","O","prev bulk stop"
"922181056","1798.0","wline","O","prev bulk stop"
"925900374","2747.16","wline","O","prev bulk stop"
"922394897","3292.61","wline","O","prev bulk stop"
"922061845","6125.97","wline","O","prev bulk stop"
"912786639","1939.72","wline","O","prev bulk stop"
"867255748","36.78","wline","O","prev bulk stop"
"926290092","0.0","wline","O","below threshold"
"884929211","40265.77","wline","O","prev bulk stop"
"901903150","51075.94","wline","CAN","below threshold"
"909677043","2036.44","wline","O","prev bulk stop"
"921219981","6056.44","wline","O","prev bulk stop"
"927787240","18421.28","wline","O","prev bulk stop"
"872906372","-1463.97","wline","O","below threshold"
"920550610","-9810.9","wline","O","below threshold"
"911975780","1869.61","wline","O","prev bulk stop"
"884930191","3406.37","wline","CAN","below threshold"
"900967607","34911.64","wline","O","prev bulk stop"
"900728332","5548.82","wline","CAN","below threshold"
"886094470","269.43","wline","O","prev bulk stop"
"859291317","17.84","wline","O","prev bulk stop"
"921360509","2900.62","wline","O","prev bulk stop"
"923170377","3657.5","wline","O","prev bulk stop"
"920346308","2899.0","wline","O","prev bulk stop"
"869981348","5774.13","wline","CAN","below threshold"
"923197297","2499.5","wline","O","prev bulk stop"
"902393479","-5939.94","wline","O","below threshold"
"919497170","53.55","wline","O","prev bulk stop"
"917860187","-2237.37","wline","O","below threshold"
"922982646","-3374.04","wline","O","below threshold"
"924249954","-59.79","wline","O","below threshold"
"922982787","-13371.35","wline","O","below threshold"
"860690530","0.0","wline","CAN","below threshold"
"909311070","2054.98","wline","O","prev bulk stop"
"902655158","31568.14","wline","O","prev bulk stop"
"918061338","-1724.92","wline","O","below threshold"
"920853552","2778.04","wline","O","prev bulk stop"
"916390581","5196.0","wline","O","prev bulk stop"
"909247448","1899.0","wline","O","prev bulk stop"
"900914313","30828.78","wline","O","prev bulk stop"
"902186221","32517.64","wline","O","prev bulk stop"
"875986926","8233.79","wline","O","prev bulk stop"
"922394800","3316.33","wline","O","prev bulk stop"
"922394756","3255.14","wline","O","prev bulk stop"
"919999120","9032.57","wline","O","prev bulk stop"
"875712061","0.0","wline","O","below threshold"
"914331272","-1272.54","wline","O","below threshold"
"905345893","-46.64","wline","O","below threshold"
"920355888","0.0","wline","O","below threshold"
"914589535","3128.63","wline","O","prev bulk stop"
"906512998","-2244.76","wline","O","below threshold"
"914178574","-33.91","wline","O","below threshold"
"901865594","29384.46","wline","CAN","below threshold"
"880139676","0.0","wline","O","below threshold"
"910097851","225.59","wline","O","prev bulk stop"
"883267540","4843.03","wline","O","prev bulk stop"
"883272120","3238.11","wline","O","prev bulk stop"
"910630569","2543.61","wline","O","prev bulk stop"
"901150214","8083.83","wline","CAN","below threshold"
"901481549","33665.14","wline","O","prev bulk stop"
"916811785","-2507.04","wline","O","below threshold"
"876603315","9546.8","wline","O","prev bulk stop"
"880727658","12149.63","wline","O","prev bulk stop"
"922439035","2232.33","wline","O","prev bulk stop"
"920405024","19750.5","wline","O","prev bulk stop"
"855164952","-32.45","wline","O","below threshold"
"876192792","5755.37","wline","O","prev bulk stop"
"922389746","3255.11","wline","O","prev bulk stop"
"886772886","-4369.09","wline","O","below threshold"
"909022585","1093.11","wline","O","prev bulk stop"
"907979812","3217.88","wline","O","prev bulk stop"
"917699176","0.0","wline","O","below threshold"
"901735204","15940.22","wline","CAN","below threshold"
"903214130","-4649.05","wline","CAN","below threshold"
"887865370","1601.04","wline","O","prev bulk stop"
"905298501","-14425.6","wline","O","below threshold"
"900914270","35640.69","wline","O","prev bulk stop"
"883088954","11854.32","wline","O","prev bulk stop"
"922207119","-2299.34","wline","O","below threshold"
"880538651","6593.17","wline","O","prev bulk stop"
"914589584","2543.62","wline","O","prev bulk stop"
"908218375","-19532.5","wline","CAN","below threshold"
"912933251","318.67","wline","O","prev bulk stop"
"872475961","-3893.48","wline","O","below threshold"
"887937161","114.2","wline","O","prev bulk stop"
"917554239","3834.16","wline","O","prev bulk stop"
"919999119","9034.99","wline","O","prev bulk stop"
"869704289","2796.0","wline","O","prev bulk stop"
"883294239","1424.3","wline","O","prev bulk stop"
"883438589","2248.15","wline","O","prev bulk stop"
"876344718","8141.15","wline","O","prev bulk stop"
"882122801","11095.22","wline","O","prev bulk stop"
"901935890","51329.14","wline","O","prev bulk stop"
"884810377","1137.88","wline","O","prev bulk stop"
"907380909","0.0","wline","CAN","below threshold"
"926090487","-2467.86","wline","O","below threshold"
"906828495","0.0","wline","O","below threshold"
"910467018","-2936.57","wline","O","below threshold"
"883271908","2944.8","wline","O","prev bulk stop"
"910636967","2595.21","wline","O","prev bulk stop"
"919049636","8109.5","wline","O","prev bulk stop"
"885161125","37266.29","wline","O","prev bulk stop"
"901735185","51519.04","wline","O","prev bulk stop"
"914589615","2543.62","wline","O","prev bulk stop"
"863011984","1447.57","wline","O","prev bulk stop"
"876817815","58.82","wline","O","prev bulk stop"
"900788746","35010.64","wline","O","prev bulk stop"
"901935910","16142.51","wline","CAN","below threshold"
"876990372","-1865.09","wline","O","below threshold"
"883293697","1424.3","wline","O","prev bulk stop"
"911255394","2415.02","wline","O","prev bulk stop"
"919363547","2743.75","wline","O","prev bulk stop"
"904061051","0.0","wline","O","below threshold"
"910758750","11638.52","wline","O","prev bulk stop"
"902655134","28855.37","wline","O","prev bulk stop"
"900718209","15562.29","wline","CAN","below threshold"
"838198029","32.13","wline","O","prev bulk stop"
"920353582","406.22","wline","O","prev bulk stop"
"885832736","-4558.15","wline","O","below threshold"
"925035624","11487.98","wline","O","prev bulk stop"
"920666537","8989.04","wline","O","prev bulk stop"
"918561879","-180.0","wline","O","below threshold"
"922397389","3255.11","wline","O","prev bulk stop"
"922404569","3658.61","wline","O","prev bulk stop"
"903501630","4047.99","wline","O","prev bulk stop"
"887638321","8593.95","wline","O","prev bulk stop"
"883945852","-6030.04","wline","CAN","below threshold"
"924069629","-3577.85","wline","O","below threshold"
"910865395","-107.03","wline","O","below threshold"
"882850969","-1266.23","wline","O","below threshold"
"880238433","279.36","wline","O","prev bulk stop"
"914589547","2543.62","wline","O","prev bulk stop"
"919999088","9032.57","wline","O","prev bulk stop"
"922038725","0.0","wline","O","below threshold"
"900836748","34061.14","wline","CAN","below threshold"
"902454373","31469.14","wline","O","prev bulk stop"
"887373258","-16602.35","wline","O","below threshold"
"907805511","0.0","wline","CAN","below threshold"
"887349500","0.0","wline","O","below threshold"
"859887790","2597.99","wline","O","prev bulk stop"
"914165308","338.29","wline","O","prev bulk stop"
"847118486","0.0","wline","O","below threshold"
"924011296","28668.64","wline","O","prev bulk stop"
"883767164","11153.74","wline","O","prev bulk stop"
"868872994","1843.66","wline","O","prev bulk stop"
"900836804","42400.54","wline","O","prev bulk stop"
"926081189","-4711.63","wline","O","below threshold"
"882857240","-179.35","wline","O","below threshold"
"883926432","-2910.66","wline","O","below threshold"
"919044813","3014.84","wline","O","prev bulk stop"
"922238944","23.2","wline","O","prev bulk stop"
"877266586","19.6","wline","O","prev bulk stop"
"919830989","5975.02","wline","O","prev bulk stop"
"880563426","15168.05","wline","O","prev bulk stop"
"910636795","2659.46","wline","O","prev bulk stop"
"901735112","32517.64","wline","O","prev bulk stop"
"862765599","-1348.08","wline","O","below threshold"
"888610069","1701.17","wline","O","prev bulk stop"
"913350400","0.0","wline","CAN","below threshold"
"924701770","798.01","wline","O","prev bulk stop"
"901771608","34416.64","wline","O","prev bulk stop"
"876175992","1701.01","wline","O","prev bulk stop"
"841854510","-43.3","wline","O","below threshold"
"908246940","1932.9","wline","O","prev bulk stop"
"905718825","2847.93","wline","O","prev bulk stop"
"908698667","-4937.65","wline","O","below threshold"
"920666501","8709.95","wline","O","prev bulk stop"
"881800262","3628.11","wline","O","prev bulk stop"
"926780394","2099.0","wline","O","prev bulk stop"
"883760415","0.0","wline","O","below threshold"
"922067980","1899.0","wline","O","prev bulk stop"
"883271078","4421.18","wline","O","prev bulk stop"
"902655146","30848.36","wline","O","prev bulk stop"
"900705472","37545.53","wline","O","prev bulk stop"
"909927780","2107.39","wline","O","prev bulk stop"
"900752264","35010.64","wline","O","prev bulk stop"
"902780420","32418.64","wline","O","prev bulk stop"
"876716033","-3186.67","wline","O","below threshold"
"884825274","-1889.01","wline","O","below threshold"
"903923886","8004.93","wline","O","prev bulk stop"
"922397410","4671.5","wline","O","prev bulk stop"
"869412268","-2052.15","wline","O","below threshold"
"851100688","4013.41","wline","O","prev bulk stop"
"885146797","35331.52","wline","O","prev bulk stop"
"905314241","0.0","wline","O","below threshold"
"914178617","-31.89","wline","O","below threshold"
"914156404","318.67","wline","O","prev bulk stop"
"886557523","2023.0","wline","O","prev bulk stop"
"901864407","52848.34","wline","CAN","below threshold"
"902205307","31667.14","wline","O","prev bulk stop"
"919040840","12996.0","wline","O","prev bulk stop"
"925840662","-5236.37","wline","O","below threshold"
"884927125","42241.49","wline","O","prev bulk stop"
"844788009","11050.94","wline","O","prev bulk stop"
"919041546","1923.69","wline","O","prev bulk stop"
"907380866","0.0","wline","CAN","below threshold"
"873619400","-980.21","wline","O","below threshold"
"920844309","1598.0","wline","O","prev bulk stop"
"875991912","4233.46","wline","O","prev bulk stop"
"845610950","4358.73","wline","O","prev bulk stop"
"877448185","2125.91","wline","O","prev bulk stop"
"911225433","17983.96","wline","O","prev bulk stop"
"883952007","-1796.33","wline","O","below threshold"
"902068241","51519.04","wline","O","prev bulk stop"
"910636691","2606.11","wline","O","prev bulk stop"
"906824320","-5177.69","wline","O","below threshold"
"922982740","-3608.35","wline","O","below threshold"
"920665829","10167.28","wline","O","prev bulk stop"
"906407258","-1377.46","wline","O","below threshold"
"900705355","37398.51","wline","CAN","below threshold"
"915821001","-3462.78","wline","O","below threshold"
"612267400","2574.81","wline","O","prev bulk stop"
"921444987","4899.25","wline","O","prev bulk stop"
"922397390","3255.11","wline","O","prev bulk stop"
"914593284","2770.87","wline","O","prev bulk stop"
"861058730","7272.76","wline","O","prev bulk stop"
"902520239","57.52","wline","O","prev bulk stop"
"831393465","6076.66","wline","O","prev bulk stop"
"926721308","0.0","wline","O","below threshold"
"922404557","3255.11","wline","O","prev bulk stop"
"922410841","3255.11","wline","O","prev bulk stop"
"910394300","-4115.99","wline","O","below threshold"
"915374720","-6582.26","wline","O","below threshold"
"906583021","3879.01","wline","CAN","below threshold"
"850752853","-1276.5","wline","O","below threshold"
"920668703","8999.02","wline","O","prev bulk stop"
"900788734","-394.72","wline","CAN","below threshold"
"900705460","4913.76","wline","CAN","below threshold"
"853693854","-981.16","wline","O","below threshold"
"881416701","1998.01","wline","O","prev bulk stop"
"901909073","-3599.0","wline","O","below threshold"
"921291942","-48.2","wline","O","below threshold"
"885147500","39728.36","wline","O","prev bulk stop"
"831138903","7391.72","wline","O","prev bulk stop"
"883294589","124.81","wline","O","prev bulk stop"
"916436575","2632.85","wline","O","prev bulk stop"
"922410865","3255.11","wline","O","prev bulk stop"
"867587927","1176.57","wline","O","prev bulk stop"
"925912047","-1298.18","wline","O","below threshold"
"887632931","6926.72","wline","O","prev bulk stop"
"909566853","1729.66","wline","O","prev bulk stop"
"912433940","2598.0","wline","O","prev bulk stop"
"916436620","2816.78","wline","O","prev bulk stop"
"884736370","1422.96","wline","O","prev bulk stop"
"911225457","17632.67","wline","O","prev bulk stop"
"910797449","2465.54","wline","O","prev bulk stop"
"916686423","-31.05","wline","O","below threshold"
"919059783","0.0","wline","O","below threshold"
"910642372","2722.41","wline","O","prev bulk stop"
"919981362","8870.29","wline","O","prev bulk stop"
"918310323","3762.11","wline","O","prev bulk stop"
"921054715","-2920.18","wline","O","below threshold"
"887899232","1601.04","wline","O","prev bulk stop"
"916436711","2358.05","wline","O","prev bulk stop"
"920278436","2643.72","wline","O","prev bulk stop"
"885356499","0.0","wline","CAN","below threshold"
"887472549","-2335.06","wline","CAN","below threshold"
"920844230","85.65","wline","O","prev bulk stop"
"880563438","2783.57","wline","O","prev bulk stop"
"883269083","2944.8","wline","O","prev bulk stop"
"908072578","1899.0","wline","O","prev bulk stop"
"919999107","9030.15","wline","O","prev bulk stop"
"872906384","-1515.96","wline","CAN","below threshold"
"868144500","-1072.8","wline","O","below threshold"
"908951745","33.91","wline","O","prev bulk stop"
"900610575","323.13","wline","O","prev bulk stop"
"905345936","-1518.66","wline","O","below threshold"
"901935877","52215.34","wline","O","prev bulk stop"
"900707428","35505.65","wline","O","prev bulk stop"
"914331327","-1217.82","wline","O","below threshold"
"912280597","2588.23","wline","O","prev bulk stop"
"884736068","2684.45","wline","O","prev bulk stop"
"922394861","3399.74","wline","O","prev bulk stop"
"919270134","6767.06","wline","O","prev bulk stop"
"900918350","13835.56","wline","CAN","below threshold"
"884623406","0.0","wline","O","below threshold"
"883272284","4257.48","wline","O","prev bulk stop"
"922810640","3255.3","wline","O","prev bulk stop"
"921444963","18895.29","wline","O","prev bulk stop"
"888642995","2787.21","wline","O","prev bulk stop"
"834164084","6853.92","wline","O","prev bulk stop"
"883765761","9816.81","wline","O","prev bulk stop"
"883768310","9873.7","wline","O","prev bulk stop"
"902355334","31667.14","wline","O","prev bulk stop"
"911996111","2710.63","wline","O","prev bulk stop"
"882253874","16726.86","wline","O","prev bulk stop"
"923668131","-11347.58","wline","O","below threshold"
"923685489","32.0","wline","O","prev bulk stop"
"924009946","5296.01","wline","O","prev bulk stop"
"907380878","0.0","wline","CAN","below threshold"
"871586165","13131.47","wline","O","prev bulk stop"
"922982702","-2987.36","wline","O","below threshold"
"904262186","-0.02","wline","O","below threshold"
"902073670","-4258.81","wline","O","below threshold"
"925585148","2543.62","wline","O","prev bulk stop"
"911222688","13275.98","wline","O","prev bulk stop"
"918869689","2949.75","wline","O","prev bulk stop"
"900836797","-1636.76","wline","CAN","below threshold"
"884822296","2309.45","wline","O","prev bulk stop"
"901150183","25.03","wline","CAN","below threshold"
"862764855","-2650.31","wline","O","below threshold"
"883948381","-166.37","wline","O","below threshold"
"888590982","1899.0","wline","O","prev bulk stop"
"922982660","-3374.04","wline","O","below threshold"
"916109343","9950.95","wline","O","prev bulk stop"
"906787668","50.65","wline","O","prev bulk stop"
"860112777","-932.15","wline","O","below threshold"
"918497318","-1234.65","wline","O","below threshold"
"922389760","3255.33","wline","O","prev bulk stop"
"922394812","3262.47","wline","O","prev bulk stop"
"911297778","-2891.9","wline","O","below threshold"
"880337017","-2224.25","wline","O","below threshold"
"880818440","-249.59","wline","O","below threshold"
