"financial_account_id","cfu","status","entity","source","posting_date","payt","gbu_name","runrate","insert_date"
"874323623","EG","Active","Innove","ICCBS","20230614","220467.88","","0","2023-06-15"
"859884553","EG","Active","Innove","ICCBS","20230614","174595.41","","0","2023-06-15"
"887726228","EG","Active","Innove","ICCBS","20230614","144826.66","","0","2023-06-15"
"886450154","Consumer","Active","Innove","ICCBS","20230614","1000.00","","0","2023-06-15"
"879152542","EG","Active","Innove","ICCBS","20230614","133.93","","0","2023-06-15"
"849562648","Consumer","Active","Innove","ICCBS","20230614","2997.99","","0","2023-06-15"
"876132851","EG","Active","Innove","ICCBS","20230614","138210.40","","0","2023-06-15"
"865911564","EG","Active","Innove","ICCBS","20230614","52943.50","","0","2023-06-15"
"611378974","EG","Active","Innove","ICCBS","20230614","14.27","","0","2023-06-15"
"106781430","EG","Active","Innove","ICCBS","20230614","1898.00","","0","2023-06-15"
"863785904","EG","Active","Innove","ICCBS","20230614","224.57","","0","2023-06-15"
"880179416","EG","Active","Innove","ICCBS","20230614","72370.98","","0","2023-06-15"
"879144775","EG","Active","Innove","ICCBS","20230614","133.93","","0","2023-06-15"
"854843860","Consumer","Historic","Innove","ICCBS","20230614","1800.00","","0","2023-06-15"
"613305523","EG","Active","Innove","ICCBS","20230614","700.00","","0","2023-06-15"
"888908415","EG","Active","Innove","ICCBS","20230614","91895.43","","0","2023-06-15"
"888917448","EG","Active","Innove","ICCBS","20230614","134866.60","","0","2023-06-15"
"888803654","Consumer","Active","Innove","ICCBS","20230614","1499.00","","0","2023-06-15"
"831646020","Consumer","Active","Innove","ICCBS","20230614","1898.99","","0","2023-06-15"
"881879756","EG","Active","Innove","ICCBS","20230614","22154.91","","0","2023-06-15"
"887013070","EG","Active","Innove","ICCBS","20230614","124835.20","","0","2023-06-15"
"888925111","SG","Active","Innove","ICCBS","20230614","533.46","","0","2023-06-15"
"877886228","EG","Active","Innove","ICCBS","20230614","19505.50","","0","2023-06-15"
"101213817","EG","Active","Innove","ICCBS","20230614","11473.00","","0","2023-06-15"
"868197947","EG","Active","Innove","ICCBS","20230614","39011.00","","0","2023-06-15"
"884654352","SG","Active","Innove","ICCBS","20230614","700.00","","0","2023-06-15"
"850491199","EG","Active","Innove","ICCBS","20230614","6085.47","","0","2023-06-15"
"872187810","SG","Active","Innove","ICCBS","20230614","1160.58","","0","2023-06-15"
"878808955","EG","Active","Innove","ICCBS","20230614","10304.00","","0","2023-06-15"
"887479852","SG","Active","Innove","ICCBS","20230614","629.56","","0","2023-06-15"
"856467973","Consumer","Active","Innove","ICCBS","20230614","1398.00","","0","2023-06-15"
"888952832","SG","Active","Innove","ICCBS","20230614","700.00","","0","2023-06-15"
"102997445","SG","Active","Innove","ICCBS","20230614","23.20","","0","2023-06-15"
"879225735","EG","Active","Innove","ICCBS","20230614","187141.34","","0","2023-06-15"
"888901600","EG","Active","Innove","ICCBS","20230614","41797.50","","0","2023-06-15"
"877516856","EG","Active","Innove","ICCBS","20230614","39011.00","","0","2023-06-15"
"886998156","EG","Active","Innove","ICCBS","20230614","7840.00","","0","2023-06-15"
"878551033","EG","Active","Innove","ICCBS","20230614","267.86","","0","2023-06-15"
"834835799","Consumer","Active","Innove","ICCBS","20230614","1256.28","","0","2023-06-15"
"100439741","EG","Active","Innove","ICCBS","20230614","1001.00","","0","2023-06-15"
"831069468","EG","Active","Innove","ICCBS","20230614","17.77","","0","2023-06-15"
"710049268","SG","Active","Bayan","ICCBS","20230614","3360.00","","0","2023-06-15"
"882608040","SG","Historic","Innove","ICCBS","20230614","850.00","","0","2023-06-15"
"106298778","Consumer","Historic","Innove","ICCBS","20230614","710.00","","0","2023-06-15"
"868579138","EG","Active","Innove","ICCBS","20230614","20253.29","","0","2023-06-15"
"873915815","EG","Active","Innove","ICCBS","20230614","1460.00","","0","2023-06-15"
"888628915","SG","Active","Innove","ICCBS","20230614","60500.00","","0","2023-06-15"
"881137797","EG","Active","Innove","ICCBS","20230614","500.00","","0","2023-06-15"
"866906275","EG","Active","Innove","ICCBS","20230614","17833.60","","0","2023-06-15"
"611378347","EG","Active","Innove","ICCBS","20230614","71.25","","0","2023-06-15"
"830165053","Consumer","Historic","Innove","ICCBS","20230614","9727.92","","0","2023-06-15"
"701299211","SG","Active","Bayan","ICCBS","20230614","100.67","","0","2023-06-15"
"852907433","Consumer","Active","Innove","ICCBS","20230614","2000.00","","0","2023-06-15"
"878789150","EG","Active","Innove","ICCBS","20230614","84598.14","","0","2023-06-15"
"848940814","EG","Active","Innove","ICCBS","20230614","2934.40","","0","2023-06-15"
"860013321","EG","Active","Innove","ICCBS","20230614","982.13","","0","2023-06-15"
"866897679","EG","Active","Innove","ICCBS","20230614","1080.00","","0","2023-06-15"
"877713956","SG","Active","Innove","ICCBS","20230614","12000.00","","0","2023-06-15"
"887522649","Consumer","Historic","Innove","ICCBS","20230614","4892.21","","0","2023-06-15"
"888533766","SG","Active","Innove","ICCBS","20230614","40.00","","0","2023-06-15"
"858488282","Consumer","Active","Innove","ICCBS","20230614","1815.99","","0","2023-06-15"
"888950410","SG","Active","Innove","ICCBS","20230614","34650.00","","0","2023-06-15"
"711181646","EG","Active","Bayan","ICCBS","20230614","320.00","","0","2023-06-15"
"868500098","EG","Active","Innove","ICCBS","20230614","310185.00","","0","2023-06-15"
"873813097","EG","Active","Innove","ICCBS","20230614","3343.80","","0","2023-06-15"
"838564974","EG","Active","Innove","ICCBS","20230614","886.00","","0","2023-06-15"
"866396222","Consumer","Active","Innove","ICCBS","20230614","599.00","","0","2023-06-15"
"875869920","EG","Active","Innove","ICCBS","20230614","2649.81","","0","2023-06-15"
"875802970","EG","Active","Innove","ICCBS","20230614","46477.15","","0","2023-06-15"
"876217000","SG","Active","Innove","ICCBS","20230614","56175.00","","0","2023-06-15"
"888907142","EG","Active","Innove","ICCBS","20230614","557126.13","","0","2023-06-15"
"884655404","SG","Active","Innove","ICCBS","20230614","36064.00","","0","2023-06-15"
"888451355","EG","Active","Innove","ICCBS","20230614","129293.60","","0","2023-06-15"
"867095005","EG","Active","Innove","ICCBS","20230614","23406.60","","0","2023-06-15"
"885717193","Consumer","Active","Innove","ICCBS","20230614","2197.99","","0","2023-06-15"
"700273302","EG","Active","Bayan","ICCBS","20230614","44.16","","0","2023-06-15"
"841497329","EG","Active","Innove","ICCBS","20230614","887.99","","0","2023-06-15"
"888892683","EG","Active","Innove","ICCBS","20230614","76784.40","","0","2023-06-15"
"876578467","EG","Active","Innove","ICCBS","20230614","2651.00","","0","2023-06-15"
"872389512","EG","Active","Innove","ICCBS","20230614","360.00","","0","2023-06-15"
"831011260","Consumer","Active","Innove","ICCBS","20230614","250.00","","0","2023-06-15"
"601909898","Consumer","Active","Innove","ICCBS","20230614","500.00","","0","2023-06-15"
"886489988","Consumer","Active","Innove","ICCBS","20230614","1398.00","","0","2023-06-15"
"851142551","Consumer","Historic","Innove","ICCBS","20230614","5390.00","","0","2023-06-15"
"831103675","Consumer","Historic","Innove","ICCBS","20230614","1300.00","","0","2023-06-15"
"870089937","SG","Active","Innove","ICCBS","20230614","134000.00","","0","2023-06-15"
"888461963","SG","Active","Innove","ICCBS","20230614","1530.00","","0","2023-06-15"
"856530757","EG","Active","Innove","ICCBS","20230614","267.86","","0","2023-06-15"
"881464876","EG","Active","Innove","ICCBS","20230614","167190.00","","0","2023-06-15"
"882355080","EG","Active","Innove","ICCBS","20230614","414494.11","","0","2023-06-15"
"863504582","Consumer","Historic","Innove","ICCBS","20230614","1800.00","","0","2023-06-15"
"885933965","EG","Active","Innove","ICCBS","20230614","28422.30","","0","2023-06-15"
"887526765","EG","Active","Innove","ICCBS","20230614","7840.00","","0","2023-06-15"
"848558940","Consumer","Active","Innove","ICCBS","20230614","1699.00","","0","2023-06-15"
"841834037","SG","Active","Innove","ICCBS","20230614","1600.00","","0","2023-06-15"
"888890493","EG","Active","Innove","ICCBS","20230614","980.00","","0","2023-06-15"
"886303295","Consumer","Active","Innove","ICCBS","20230614","999.00","","0","2023-06-15"
"882343345","EG","Active","Innove","ICCBS","20230614","75655.71","","0","2023-06-15"
"106382350","Consumer","Active","Innove","ICCBS","20230614","1398.00","","0","2023-06-15"
"856218201","SG","Active","Innove","ICCBS","20230614","1900.00","","0","2023-06-15"
"861425626","EG","Active","Innove","ICCBS","20230614","3440.00","","0","2023-06-15"
"881556992","EG","Active","Innove","ICCBS","20230614","185023.60","","0","2023-06-15"
"884615676","EG","Active","Innove","ICCBS","20230614","1025432.00","","0","2023-06-15"
"881634648","Consumer","Active","Innove","ICCBS","20230614","1300.00","","0","2023-06-15"
"875225781","EG","Active","Innove","ICCBS","20230614","1128532.50","","0","2023-06-15"
"883711330","SG","Historic","Innove","ICCBS","20230614","35.03","","0","2023-06-15"
"862330217","Consumer","Active","Innove","ICCBS","20230614","1398.00","","0","2023-06-15"
"886515730","Consumer","Active","Innove","ICCBS","20230614","1898.98","","0","2023-06-15"
"707093256","SG","Historic","Bayan","ICCBS","20230614","1720.00","","0","2023-06-15"
"601889336","EG","Active","Innove","ICCBS","20230614","4060.46","","0","2023-06-15"
"883513428","EG","Active","Innove","ICCBS","20230614","83815.09","","0","2023-06-15"
"888893655","EG","Active","Innove","ICCBS","20230614","140829.71","","0","2023-06-15"
"881066180","EG","Active","Innove","ICCBS","20230614","114840.00","","0","2023-06-15"
"879169689","EG","Active","Innove","ICCBS","20230614","550.00","","0","2023-06-15"
"887249364","Consumer","Active","Innove","ICCBS","20230614","2997.99","","0","2023-06-15"
"842896848","EG","Active","Innove","ICCBS","20230614","66550.00","","0","2023-06-15"
"888930460","EG","Active","Innove","ICCBS","20230614","31457.80","","0","2023-06-15"
"886774253","SG","Active","Innove","ICCBS","20230614","27500.00","","0","2023-06-15"
"888555273","EG","Active","Innove","ICCBS","20230614","200.00","","0","2023-06-15"
"882414072","EG","Active","Innove","ICCBS","20230614","54301.08","","0","2023-06-15"
"102363196","Consumer","Active","Innove","ICCBS","20230614","510.00","","0","2023-06-15"
"869476854","EG","Active","Innove","ICCBS","20230614","2180.00","","0","2023-06-15"
"878296982","EG","Active","Innove","ICCBS","20230614","48066.48","","0","2023-06-15"
"881602061","SG","Active","Innove","ICCBS","20230614","1015.19","","0","2023-06-15"
"610936966","EG","Active","Innove","ICCBS","20230614","14.27","","0","2023-06-15"
"886400140","EG","Active","Innove","ICCBS","20230614","114666.71","","0","2023-06-15"
"888781184","Consumer","Active","Innove","ICCBS","20230614","1499.00","","0","2023-06-15"
"838590537","EG","Active","Innove","ICCBS","20230614","15.86","","0","2023-06-15"
"830145540","Consumer","Active","Innove","ICCBS","20230614","1398.00","","0","2023-06-15"
"877006948","SG","Active","Innove","ICCBS","20230614","360.00","","0","2023-06-15"
"881613419","EG","Active","Innove","ICCBS","20230614","880.00","","0","2023-06-15"
"857224881","Consumer","Active","Innove","ICCBS","20230614","2246.99","","0","2023-06-15"
"888930434","EG","Active","Innove","ICCBS","20230614","69148.20","","0","2023-06-15"
"888894467","EG","Active","Innove","ICCBS","20230614","1504535.57","","0","2023-06-15"
"869966702","EG","Active","Innove","ICCBS","20230614","428.00","","0","2023-06-15"
"720440530","Consumer","Active","Bayan","ICCBS","20230614","1100.00","","0","2023-06-15"
"103448245","EG","Active","Innove","ICCBS","20230614","1522.20","","0","2023-06-15"
"888926863","SG","Active","Innove","ICCBS","20230614","49948.00","","0","2023-06-15"
"611510387","EG","Active","Innove","ICCBS","20230614","2173.51","","0","2023-06-15"
"831873412","Consumer","Historic","Innove","ICCBS","20230614","1348.00","","0","2023-06-15"
"884060132","EG","Active","Innove","ICCBS","20230614","190596.60","","0","2023-06-15"
"844419216","Consumer","Active","Innove","ICCBS","20230614","2000.00","","0","2023-06-15"
"876335132","Consumer","Active","Innove","ICCBS","20230614","1399.00","","0","2023-06-15"
"888890339","EG","Active","Innove","ICCBS","20230614","110171.53","","0","2023-06-15"
"888632800","EG","Active","Innove","ICCBS","20230614","117033.00","","0","2023-06-15"
"862137048","EG","Active","Innove","ICCBS","20230614","2934.40","","0","2023-06-15"
"882411600","Consumer","Active","Innove","ICCBS","20230614","2800.00","","0","2023-06-15"
"887387527","EG","Active","Innove","ICCBS","20230614","75792.80","","0","2023-06-15"
"875040227","Consumer","Active","Innove","ICCBS","20230614","2146.98","","0","2023-06-15"
"885855400","Consumer","Active","Innove","ICCBS","20230614","999.00","","0","2023-06-15"
"879261920","EG","Active","Innove","ICCBS","20230614","308550.00","","0","2023-06-15"
"887536802","EG","Active","Innove","ICCBS","20230614","980.00","","0","2023-06-15"
"880392725","Consumer","Active","Innove","ICCBS","20230614","3200.00","","0","2023-06-15"
"882964045","EG","Active","Innove","ICCBS","20230614","73006.30","","0","2023-06-15"
"831152854","Consumer","Active","Innove","ICCBS","20230614","1398.00","","0","2023-06-15"
"871225913","EG","Active","Innove","ICCBS","20230614","42850.79","","0","2023-06-15"
"870320629","Consumer","Historic","Innove","ICCBS","20230614","1695.00","","0","2023-06-15"
"888894387","SG","Active","Innove","ICCBS","20230614","399.00","","0","2023-06-15"
"888895359","EG","Active","Innove","ICCBS","20230614","200628.00","","0","2023-06-15"
"888950760","SG","Active","Innove","ICCBS","20230614","5613.05","","0","2023-06-15"
"857840223","SG","Active","Innove","ICCBS","20230614","17.07","","0","2023-06-15"
"853402594","EG","Active","Innove","ICCBS","20230614","15.86","","0","2023-06-15"
"853011571","EG","Active","Innove","ICCBS","20230614","2959.40","","0","2023-06-15"
"879704537","EG","Active","Innove","ICCBS","20230614","15988.50","","0","2023-06-15"
"888892996","EG","Active","Innove","ICCBS","20230614","873567.75","","0","2023-06-15"
"849245587","Consumer","Active","Innove","ICCBS","20230614","2000.00","","0","2023-06-15"
"877879201","Consumer","Active","Innove","ICCBS","20230614","700.00","","0","2023-06-15"
"886628827","EG","Active","Innove","ICCBS","20230614","50435.65","","0","2023-06-15"
"854903779","Consumer","Active","Innove","ICCBS","20230614","1999.00","","0","2023-06-15"
"887543450","SG","Active","Innove","ICCBS","20230614","49280.00","","0","2023-06-15"
"710116678","Consumer","Active","Bayan","ICCBS","20230614","1600.00","","0","2023-06-15"
"888908949","EG","Active","Innove","ICCBS","20230614","37339.10","","0","2023-06-15"
"850157173","Consumer","Active","Innove","ICCBS","20230614","1997.99","","0","2023-06-15"
"887352957","Consumer","Active","Innove","ICCBS","20230614","1795.00","","0","2023-06-15"
"878597780","EG","Active","Innove","ICCBS","20230614","267.86","","0","2023-06-15"
"612836232","SG","Active","Innove","ICCBS","20230614","1106.46","","0","2023-06-15"
"888911850","SG","Active","Innove","ICCBS","20230614","39452.90","","0","2023-06-15"
"859937016","EG","Active","Innove","ICCBS","20230614","133.93","","0","2023-06-15"
"887914516","SG","Active","Innove","ICCBS","20230614","1898.00","","0","2023-06-15"
"613314083","EG","Active","Innove","ICCBS","20230614","1527.61","","0","2023-06-15"
"866678679","Consumer","Active","Innove","ICCBS","20230614","1698.00","","0","2023-06-15"
"888897236","SG","Active","Innove","ICCBS","20230614","26612.89","","0","2023-06-15"
"879152150","EG","Active","Innove","ICCBS","20230614","133.93","","0","2023-06-15"
"859643942","EG","Active","Innove","ICCBS","20230614","133.93","","0","2023-06-15"
"883604720","Consumer","Historic","Innove","ICCBS","20230614","1275.99","","0","2023-06-15"
"832753725","Consumer","Active","Innove","ICCBS","20230614","1300.00","","0","2023-06-15"
"882156750","SG","Active","Innove","ICCBS","20230614","20350.00","","0","2023-06-15"
"881428158","EG","Active","Innove","ICCBS","20230614","50490.00","","0","2023-06-15"
"610778799","Consumer","Active","Innove","ICCBS","20230614","1798.00","","0","2023-06-15"
"888815628","EG","Active","Innove","ICCBS","20230614","24976.00","","0","2023-06-15"
"102881725","Consumer","Active","Innove","ICCBS","20230614","599.00","","0","2023-06-15"
"888170975","SG","Active","Innove","ICCBS","20230614","3697.99","","0","2023-06-15"
"845538400","SG","Active","Innove","ICCBS","20230614","150.00","","0","2023-06-15"
"707169243","EG","Active","Bayan","ICCBS","20230614","1147.04","","0","2023-06-15"
"875803211","EG","Active","Innove","ICCBS","20230614","46477.15","","0","2023-06-15"
"831681868","SG","Active","Innove","ICCBS","20230614","19.61","","0","2023-06-15"
"103128759","EG","Active","Innove","ICCBS","20230614","1467.20","","0","2023-06-15"
"877354224","EG","Active","Innove","ICCBS","20230614","128736.30","","0","2023-06-15"
"888382265","SG","Active","Innove","ICCBS","20230614","131076.96","","0","2023-06-15"
"837238937","EG","Active","Innove","ICCBS","20230614","1086735.00","","0","2023-06-15"
"882936845","EG","Active","Innove","ICCBS","20230614","74541.11","","0","2023-06-15"
"873617572","EG","Active","Innove","ICCBS","20230614","947410.00","","0","2023-06-15"
"847280300","SG","Active","Innove","ICCBS","20230614","100800.00","","0","2023-06-15"
"830033007","EG","Active","Innove","ICCBS","20230614","1061322.12","","0","2023-06-15"
"882312290","EG","Active","Innove","ICCBS","20230614","93960.78","","0","2023-06-15"
"100668525","Consumer","Active","Innove","ICCBS","20230614","1400.00","","0","2023-06-15"
"872515465","EG","Active","Innove","ICCBS","20230614","72449.00","","0","2023-06-15"
"888273927","SG","Active","Innove","ICCBS","20230614","976.00","","0","2023-06-15"
"869805107","SG","Active","Innove","ICCBS","20230614","1900.00","","0","2023-06-15"
"886861000","EG","Active","Innove","ICCBS","20230614","1335.59","","0","2023-06-15"
"888707795","SG","Active","Innove","ICCBS","20230614","231.00","","0","2023-06-15"
"847949141","EG","Active","Innove","ICCBS","20230614","1467.20","","0","2023-06-15"
"610212430","Consumer","Historic","Innove","ICCBS","20230614","200.00","","0","2023-06-15"
"873968058","EG","Active","Innove","ICCBS","20230614","182014.18","","0","2023-06-15"
"883322882","EG","Active","Innove","ICCBS","20230614","384537.00","","0","2023-06-15"
"888445730","EG","Active","Innove","ICCBS","20230614","167190.00","","0","2023-06-15"
"888895163","EG","Active","Innove","ICCBS","20230614","253014.20","","0","2023-06-15"
"830453653","EG","Active","Innove","ICCBS","20230614","2079.02","","0","2023-06-15"
"711013811","SG","Historic","Bayan","ICCBS","20230614","1900.00","","0","2023-06-15"
"105166852","EG","Active","Innove","ICCBS","20230614","21.36","","0","2023-06-15"
"887489140","EG","Active","Innove","ICCBS","20230614","78022.00","","0","2023-06-15"
"885665106","EG","Active","Innove","ICCBS","20230614","180565.20","","0","2023-06-15"
"720199893","SG","Active","Bayan","ICCBS","20230614","1600.00","","0","2023-06-15"
"878175780","Consumer","Historic","Innove","ICCBS","20230614","1299.00","","0","2023-06-15"
"850670990","EG","Active","Innove","ICCBS","20230614","45.98","","0","2023-06-15"
"887857498","EG","Active","Innove","ICCBS","20230614","132637.40","","0","2023-06-15"
"877595265","Consumer","Active","Innove","ICCBS","20230614","1299.00","","0","2023-06-15"
"844055569","Consumer","Active","Innove","ICCBS","20230614","1398.00","","0","2023-06-15"
"888932292","SG","Active","Innove","ICCBS","20230614","34650.00","","0","2023-06-15"
"877696353","SG","Active","Innove","ICCBS","20230614","2696.98","","0","2023-06-15"
"884866011","Consumer","Active","Innove","ICCBS","20230614","999.00","","0","2023-06-15"
"888783350","SG","Active","Innove","ICCBS","20230614","1354.84","","0","2023-06-15"
"878042066","EG","Active","Innove","ICCBS","20230614","29536.90","","0","2023-06-15"
"884267745","Consumer","Active","Innove","ICCBS","20230614","1699.00","","0","2023-06-15"
"853165302","Consumer","Active","Innove","ICCBS","20230614","1999.93","","0","2023-06-15"
"885791880","Consumer","Active","Innove","ICCBS","20230614","811.50","","0","2023-06-15"
"849429690","Consumer","Active","Innove","ICCBS","20230614","1200.00","","0","2023-06-15"
"888911849","EG","Active","Innove","ICCBS","20230614","7840.00","","0","2023-06-15"
"870628396","SG","Active","Innove","ICCBS","20230614","27.21","","0","2023-06-15"
"878550466","EG","Active","Innove","ICCBS","20230614","267.86","","0","2023-06-15"
"888516561","EG","Active","Innove","ICCBS","20230614","26460.00","","0","2023-06-15"
"703683425","Consumer","Historic","Bayan","ICCBS","20230614","6950.00","","0","2023-06-15"
"873332007","EG","Active","Innove","ICCBS","20230614","175549.50","","0","2023-06-15"
"700119243","SG","Active","Bayan","ICCBS","20230614","799.00","","0","2023-06-15"
"860324737","Consumer","Active","Innove","ICCBS","20230614","599.00","","0","2023-06-15"
"884344208","Consumer","Active","Innove","ICCBS","20230614","2997.99","","0","2023-06-15"
"854254660","Consumer","Active","Innove","ICCBS","20230614","1299.00","","0","2023-06-15"
"886504449","Consumer","Active","Innove","ICCBS","20230614","999.00","","0","2023-06-15"
"883948682","EG","Active","Innove","ICCBS","20230614","194107.59","","0","2023-06-15"
"103815977","Consumer","Active","Innove","ICCBS","20230614","1050.01","","0","2023-06-15"
"888898282","EG","Active","Innove","ICCBS","20230614","19505.50","","0","2023-06-15"
"888783595","EG","Active","Innove","ICCBS","20230614","1894627.73","","0","2023-06-15"
"888877030","EG","Active","Innove","ICCBS","20230614","100314.00","","0","2023-06-15"
"888931363","EG","Active","Innove","ICCBS","20230614","33436.80","","0","2023-06-15"
"855349694","Consumer","Active","Innove","ICCBS","20230614","1200.00","","0","2023-06-15"
"888068422","EG","Active","Innove","ICCBS","20230614","77429.03","","0","2023-06-15"
"878259360","EG","Active","Innove","ICCBS","20230614","2160.00","","0","2023-06-15"
"888774838","EG","Active","Innove","ICCBS","20230614","86938.80","","0","2023-06-15"
"859727050","EG","Active","Innove","ICCBS","20230614","267.86","","0","2023-06-15"
"832515796","Consumer","Historic","Innove","ICCBS","20230614","1266.00","","0","2023-06-15"
"702809410","SG","Active","Bayan","ICCBS","20230614","1799.00","","0","2023-06-15"
"888692490","Consumer","Active","Innove","ICCBS","20230614","1499.00","","0","2023-06-15"
"879049274","EG","Active","Innove","ICCBS","20230614","52943.50","","0","2023-06-15"
"856508230","EG","Active","Innove","ICCBS","20230614","50600.00","","0","2023-06-15"
"888898835","SG","Active","Innove","ICCBS","20230614","917.16","","0","2023-06-15"
"887173365","Consumer","Active","Innove","ICCBS","20230614","655.99","","0","2023-06-15"
"106892190","EG","Active","Innove","ICCBS","20230614","1415.73","","0","2023-06-15"
"864459113","EG","Active","Innove","ICCBS","20230614","60.10","","0","2023-06-15"
"104395301","Consumer","Historic","Innove","ICCBS","20230614","743.00","","0","2023-06-15"
"885954057","EG","Active","Innove","ICCBS","20230614","8400.00","","0","2023-06-15"
"849699002","EG","Active","Innove","ICCBS","20230614","6381.00","","0","2023-06-15"
"882245247","SG","Active","Innove","ICCBS","20230614","135060.80","","0","2023-06-15"
"887267960","Consumer","Active","Innove","ICCBS","20230614","1299.00","","0","2023-06-15"
"887914657","SG","Active","Innove","ICCBS","20230614","1898.00","","0","2023-06-15"
"888863177","Consumer","Active","Innove","ICCBS","20230614","1900.00","","0","2023-06-15"
"881980072","SG","Active","Innove","ICCBS","20230614","5973.00","","0","2023-06-15"
"886368287","Consumer","Active","Innove","ICCBS","20230614","999.00","","0","2023-06-15"
"887040102","Consumer","Active","Innove","ICCBS","20230614","2998.00","","0","2023-06-15"
"844628315","Consumer","Historic","Innove","ICCBS","20230614","700.00","","0","2023-06-15"
"888082533","Consumer","Active","Innove","ICCBS","20230614","600.00","","0","2023-06-15"
"873092308","EG","Active","Innove","ICCBS","20230614","1200.00","","0","2023-06-15"
"847180398","Consumer","Active","Innove","ICCBS","20230614","5000.00","","0","2023-06-15"
"873381456","SG","Active","Innove","ICCBS","20230614","720.00","","0","2023-06-15"
"887850393","EG","Active","Innove","ICCBS","20230614","132637.40","","0","2023-06-15"
"867556521","EG","Active","Innove","ICCBS","20230614","2748.02","","0","2023-06-15"
"881054758","Consumer","Active","Innove","ICCBS","20230614","6007.48","","0","2023-06-15"
"858744755","EG","Active","Innove","ICCBS","20230614","97527.50","","0","2023-06-15"
"601897582","Consumer","Active","Innove","ICCBS","20230614","2000.00","","0","2023-06-15"
"857711959","EG","Active","Innove","ICCBS","20230614","49.48","","0","2023-06-15"
"852482520","EG","Active","Innove","ICCBS","20230614","586502.52","","0","2023-06-15"
"887378912","EG","Active","Innove","ICCBS","20230614","2098.00","","0","2023-06-15"
"880612289","EG","Active","Innove","ICCBS","20230614","70.76","","0","2023-06-15"
"830209400","Consumer","Active","Innove","ICCBS","20230614","1797.99","","0","2023-06-15"
"879154326","EG","Active","Innove","ICCBS","20230614","133.93","","0","2023-06-15"
"877012980","EG","Active","Innove","ICCBS","20230614","2173470.00","","0","2023-06-15"
"888777540","EG","Active","Innove","ICCBS","20230614","473567.91","","0","2023-06-15"
"871050463","EG","Active","Innove","ICCBS","20230614","1180.00","","0","2023-06-15"
"106690579","SG","Active","Innove","ICCBS","20230614","1275.80","","0","2023-06-15"
"883271183","Consumer","Active","Innove","ICCBS","20230614","1797.99","","0","2023-06-15"
"885972179","EG","Active","Innove","ICCBS","20230614","13932.50","","0","2023-06-15"
"832466945","EG","Active","Innove","ICCBS","20230614","6303.42","","0","2023-06-15"
"874193130","EG","Active","Innove","ICCBS","20230614","90282.60","","0","2023-06-15"
"875221192","Consumer","Active","Innove","ICCBS","20230614","1797.99","","0","2023-06-15"
"888767915","EG","Active","Innove","ICCBS","20230614","3012.90","","0","2023-06-15"
"848295439","EG","Active","Innove","ICCBS","20230614","1398.99","","0","2023-06-15"
"883854980","EG","Active","Innove","ICCBS","20230614","1025432.00","","0","2023-06-15"
"853954118","Consumer","Active","Innove","ICCBS","20230614","1398.00","","0","2023-06-15"
"888903223","SG","Active","Innove","ICCBS","20230614","149316.13","","0","2023-06-15"
"888891809","SG","Active","Innove","ICCBS","20230614","345000.00","","0","2023-06-15"
"888133353","EG","Active","Innove","ICCBS","20230614","211774.00","","0","2023-06-15"
"876484499","EG","Active","Innove","ICCBS","20230614","33512.40","","0","2023-06-15"
"872088230","EG","Active","Innove","ICCBS","20230614","33264.13","","0","2023-06-15"
"711190599","Consumer","Historic","Bayan","ICCBS","20230614","999.00","","0","2023-06-15"
"888917995","EG","Active","Innove","ICCBS","20230614","1144415.55","","0","2023-06-15"
"611441814","EG","Active","Innove","ICCBS","20230614","700.00","","0","2023-06-15"
"844742437","Consumer","Historic","Innove","ICCBS","20230614","1299.00","","0","2023-06-15"
"867438670","EG","Active","Innove","ICCBS","20230614","2820.00","","0","2023-06-15"
"888929724","EG","Active","Innove","ICCBS","20230614","55440.00","","0","2023-06-15"
"885728982","EG","Active","Innove","ICCBS","20230614","33438.00","","0","2023-06-15"
"888923928","EG","Active","Innove","ICCBS","20230614","7840.00","","0","2023-06-15"
"601050487","Consumer","Active","Innove","ICCBS","20230614","560.00","","0","2023-06-15"
"851196829","EG","Active","Innove","ICCBS","20230614","356534.91","","0","2023-06-15"
"884137791","Consumer","Active","Innove","ICCBS","20230614","1998.00","","0","2023-06-15"
"888262267","EG","Active","Innove","ICCBS","20230614","200.00","","0","2023-06-15"
"709060350","Consumer","Active","Bayan","ICCBS","20230614","1997.99","","0","2023-06-15"
"865907041","EG","Active","Innove","ICCBS","20230614","484677.13","","0","2023-06-15"
"810006155","EG","Active","Innove","ICCBS","20230614","1000.00","","0","2023-06-15"
"864382246","Consumer","Active","Innove","ICCBS","20230614","1400.00","","0","2023-06-15"
"882450439","EG","Active","Innove","ICCBS","20230614","31753.81","","0","2023-06-15"
"888192513","SG","Active","Innove","ICCBS","20230614","3000.00","","0","2023-06-15"
"887955603","EG","Active","Innove","ICCBS","20230614","94183.70","","0","2023-06-15"
"885454500","EG","Active","Innove","ICCBS","20230614","2800.00","","0","2023-06-15"
"831474726","Consumer","Active","Innove","ICCBS","20230614","1800.00","","0","2023-06-15"
"864024572","SG","Active","Innove","ICCBS","20230614","171200.00","","0","2023-06-15"
"868181140","EG","Active","Innove","ICCBS","20230614","7631944.85","","0","2023-06-15"
"857352252","Consumer","Active","Innove","ICCBS","20230614","2109.49","","0","2023-06-15"
"870927187","EG","Active","Innove","ICCBS","20230614","24131.09","","0","2023-06-15"
"885558208","Consumer","Active","Innove","ICCBS","20230614","999.00","","0","2023-06-15"
"881975050","EG","Active","Innove","ICCBS","20230614","208987.50","","0","2023-06-15"
"885835462","EG","Active","Innove","ICCBS","20230614","2786362.35","","0","2023-06-15"
"810028909","EG","Active","Innove","ICCBS","20230614","16219023.32","","0","2023-06-15"
"878013882","SG","Active","Innove","ICCBS","20230614","11534.00","","0","2023-06-15"
"888623194","Consumer","Active","Innove","ICCBS","20230614","5797.98","","0","2023-06-15"
"106892048","EG","Active","Innove","ICCBS","20230614","1290.69","","0","2023-06-15"
"860843052","SG","Active","Innove","ICCBS","20230614","1228.38","","0","2023-06-15"
"887683421","SG","Active","Innove","ICCBS","20230614","48070.00","","0","2023-06-15"
"887846054","Consumer","Active","Innove","ICCBS","20230614","2273.98","","0","2023-06-15"
"885555095","Consumer","Active","Innove","ICCBS","20230614","3000.00","","0","2023-06-15"
"845400263","EG","Active","Innove","ICCBS","20230614","25850.00","","0","2023-06-15"
"885972954","EG","Active","Innove","ICCBS","20230614","41797.50","","0","2023-06-15"
"863500546","Consumer","Historic","Innove","ICCBS","20230614","1670.00","","0","2023-06-15"
"879892894","EG","Active","Innove","ICCBS","20230614","19505.50","","0","2023-06-15"
"860418780","EG","Active","Innove","ICCBS","20230614","267.86","","0","2023-06-15"
"888870980","EG","Active","Innove","ICCBS","20230614","84000.00","","0","2023-06-15"
"888902540","EG","Active","Innove","ICCBS","20230614","66000.00","","0","2023-06-15"
"880614584","EG","Active","Innove","ICCBS","20230614","49.48","","0","2023-06-15"
"888893667","EG","Active","Innove","ICCBS","20230614","185302.25","","0","2023-06-15"
"865037958","EG","Active","Innove","ICCBS","20230614","121651.91","","0","2023-06-15"
"876769770","Consumer","Active","Innove","ICCBS","20230614","948.00","","0","2023-06-15"
"877844410","Consumer","Active","Innove","ICCBS","20230614","1797.99","","0","2023-06-15"
"886424136","EG","Active","Innove","ICCBS","20230614","110616.00","","0","2023-06-15"
"832559222","EG","Active","Innove","ICCBS","20230614","1000.00","","0","2023-06-15"
"888613963","SG","Active","Innove","ICCBS","20230614","460.00","","0","2023-06-15"
"876573287","EG","Active","Innove","ICCBS","20230614","52215.90","","0","2023-06-15"
"881091625","Consumer","Active","Innove","ICCBS","20230614","2006.00","","0","2023-06-15"
"879164842","SG","Active","Innove","ICCBS","20230614","50176.00","","0","2023-06-15"
"887194834","Consumer","Historic","Innove","ICCBS","20230614","1281.00","","0","2023-06-15"
"105166920","EG","Active","Innove","ICCBS","20230614","17.86","","0","2023-06-15"
"888061955","SG","Active","Innove","ICCBS","20230614","388.00","","0","2023-06-15"
"888908300","EG","Active","Innove","ICCBS","20230614","1586.00","","0","2023-06-15"
"886904120","Consumer","Active","Innove","ICCBS","20230614","220.00","","0","2023-06-15"
"105166796","EG","Active","Innove","ICCBS","20230614","31.70","","0","2023-06-15"
"880615071","EG","Active","Innove","ICCBS","20230614","49.48","","0","2023-06-15"
"888914434","SG","Active","Innove","ICCBS","20230614","722.10","","0","2023-06-15"
"874985551","SG","Active","Innove","ICCBS","20230614","66.04","","0","2023-06-15"
"887324147","Consumer","Active","Innove","ICCBS","20230614","3147.98","","0","2023-06-15"
"860620213","EG","Active","Innove","ICCBS","20230614","540.43","","0","2023-06-15"
"830255175","SG","Active","Innove","ICCBS","20230614","3272.98","","0","2023-06-15"
"888944868","SG","Active","Innove","ICCBS","20230614","13652.99","","0","2023-06-15"
"883772291","EG","Active","Innove","ICCBS","20230614","417975.00","","0","2023-06-15"
"868181488","EG","Active","Innove","ICCBS","20230614","30317.12","","0","2023-06-15"
"888938954","EG","Active","Innove","ICCBS","20230614","26950.00","","0","2023-06-15"
"860870736","Consumer","Active","Innove","ICCBS","20230614","1998.00","","0","2023-06-15"
"105167098","EG","Active","Innove","ICCBS","20230614","216.58","","0","2023-06-15"
"878550835","EG","Active","Innove","ICCBS","20230614","267.86","","0","2023-06-15"
"888399352","EG","Active","Innove","ICCBS","20230614","356.00","","0","2023-06-15"
"710179769","EG","Active","Bayan","ICCBS","20230614","42.86","","0","2023-06-15"
"878483277","EG","Active","Innove","ICCBS","20230614","1000.00","","0","2023-06-15"
"888898571","SG","Active","Innove","ICCBS","20230614","435.97","","0","2023-06-15"
"833771777","EG","Active","Innove","ICCBS","20230614","55.63","","0","2023-06-15"
"872550351","EG","Active","Innove","ICCBS","20230614","22000.00","","0","2023-06-15"
"858913600","Consumer","Active","Innove","ICCBS","20230614","1400.00","","0","2023-06-15"
"860264066","SG","Active","Innove","ICCBS","20230614","1344.00","","0","2023-06-15"
"707758664","EG","Active","Bayan","ICCBS","20230614","46.41","","0","2023-06-15"
"710858594","Consumer","Historic","Bayan","ICCBS","20230614","1266.16","","0","2023-06-15"
"870789456","EG","Active","Innove","ICCBS","20230614","6025.80","","0","2023-06-15"
"888905449","EG","Active","Innove","ICCBS","20230614","124835.20","","0","2023-06-15"
"105166839","EG","Active","Innove","ICCBS","20230614","5.59","","0","2023-06-15"
"876574757","EG","Active","Innove","ICCBS","20230614","47392.31","","0","2023-06-15"
"853041599","EG","Active","Innove","ICCBS","20230614","2599.99","","0","2023-06-15"
"864141310","Consumer","Historic","Innove","ICCBS","20230614","4622.00","","0","2023-06-15"
"883410568","EG","Active","Innove","ICCBS","20230614","89168.00","","0","2023-06-15"
"887034107","EG","Active","Innove","ICCBS","20230614","39011.00","","0","2023-06-15"
"876507689","Consumer","Active","Innove","ICCBS","20230614","1097.00","","0","2023-06-15"
"832827510","Consumer","Historic","Innove","ICCBS","20230614","2596.00","","0","2023-06-15"
"887526427","EG","Active","Innove","ICCBS","20230614","140.00","","0","2023-06-15"
"601778673","SG","Active","Innove","ICCBS","20230614","2700.00","","0","2023-06-15"
"876998019","SG","Active","Innove","ICCBS","20230614","51520.00","","0","2023-06-15"
"882737371","SG","Active","Innove","ICCBS","20230614","1000.00","","0","2023-06-15"
"856621587","SG","Active","Innove","ICCBS","20230614","1997.99","","0","2023-06-15"
"836558959","Consumer","Historic","Innove","ICCBS","20230614","2571.68","","0","2023-06-15"
"888794837","EG","Active","Innove","ICCBS","20230614","80808.50","","0","2023-06-15"
"877745364","EG","Active","Innove","ICCBS","20230614","120.00","","0","2023-06-15"
"865562255","SG","Active","Innove","ICCBS","20230614","33.86","","0","2023-06-15"
"888789121","EG","Active","Innove","ICCBS","20230614","100314.00","","0","2023-06-15"
"709436228","SG","Active","Bayan","ICCBS","20230614","1799.00","","0","2023-06-15"
"887394070","Consumer","Active","Innove","ICCBS","20230614","3000.00","","0","2023-06-15"
"879149549","EG","Active","Innove","ICCBS","20230614","133.93","","0","2023-06-15"
"888805101","Consumer","Active","Innove","ICCBS","20230614","1400.44","","0","2023-06-15"
"102200125","EG","Active","Innove","ICCBS","20230614","4260.73","","0","2023-06-15"
"868596694","EG","Active","Innove","ICCBS","20230614","187000.00","","0","2023-06-15"
"610520310","Consumer","Active","Innove","ICCBS","20230614","425.00","","0","2023-06-15"
"888653950","SG","Active","Innove","ICCBS","20230614","3.57","","0","2023-06-15"
"873928755","EG","Active","Innove","ICCBS","20230614","19505.50","","0","2023-06-15"
"884872331","Consumer","Active","Innove","ICCBS","20230614","999.00","","0","2023-06-15"
"105166888","EG","Active","Innove","ICCBS","20230614","5.59","","0","2023-06-15"
"888231057","EG","Active","Innove","ICCBS","20230614","44196.43","","0","2023-06-15"
"843185667","Consumer","Active","Innove","ICCBS","20230614","500.00","","0","2023-06-15"
"869360925","EG","Active","Innove","ICCBS","20230614","158656.63","","0","2023-06-15"
"877494884","EG","Active","Innove","ICCBS","20230614","117075.00","","0","2023-06-15"
"887597278","SG","Active","Innove","ICCBS","20230614","57649.76","","0","2023-06-15"
"888930446","EG","Active","Innove","ICCBS","20230614","60110.60","","0","2023-06-15"
"888911524","SG","Active","Innove","ICCBS","20230614","27500.00","","0","2023-06-15"
"845603503","EG","Active","Innove","ICCBS","20230614","44478.50","","0","2023-06-15"
"700882328","SG","Active","Bayan","ICCBS","20230614","1299.00","","0","2023-06-15"
"875443213","EG","Active","Innove","ICCBS","20230614","110208.31","","0","2023-06-15"
"882182625","EG","Active","Innove","ICCBS","20230614","740.00","","0","2023-06-15"
"886743798","Consumer","Historic","Innove","ICCBS","20230614","4218.00","","0","2023-06-15"
"881850591","EG","Active","Innove","ICCBS","20230614","170.13","","0","2023-06-15"
"851195937","EG","Active","Innove","ICCBS","20230614","178198.91","","0","2023-06-15"
"887250129","Consumer","Active","Innove","ICCBS","20230614","1000.00","","0","2023-06-15"
"888914065","SG","Active","Innove","ICCBS","20230614","167250.25","","0","2023-06-15"
"888862168","SG","Active","Innove","ICCBS","20230614","8306.96","","0","2023-06-15"
"888882597","EG","Active","Innove","ICCBS","20230614","802338.13","","0","2023-06-15"
"102597382","SG","Active","Innove","ICCBS","20230614","24.55","","0","2023-06-15"
"888051384","EG","Active","Innove","ICCBS","20230614","61791.21","","0","2023-06-15"
"835788325","Consumer","Active","Innove","ICCBS","20230614","746.50","","0","2023-06-15"
"884038414","Consumer","Historic","Innove","ICCBS","20230614","1300.00","","0","2023-06-15"
"888911087","SG","Active","Innove","ICCBS","20230614","27500.00","","0","2023-06-15"
"870402346","SG","Active","Innove","ICCBS","20230614","82.11","","0","2023-06-15"
"883885015","EG","Active","Innove","ICCBS","20230614","11086.93","","0","2023-06-15"
"888926064","EG","Active","Innove","ICCBS","20230614","50157.00","","0","2023-06-15"
"867948670","SG","Active","Innove","ICCBS","20230614","1502.00","","0","2023-06-15"
"101374791","EG","Active","Innove","ICCBS","20230614","3291.96","","0","2023-06-15"
"888925055","EG","Active","Innove","ICCBS","20230614","275863.50","","0","2023-06-15"
"866638866","SG","Active","Innove","ICCBS","20230614","192.00","","0","2023-06-15"
"700641926","Consumer","Active","Bayan","ICCBS","20230614","2899.00","","0","2023-06-15"
"888355331","SG","Active","Innove","ICCBS","20230614","1785.71","","0","2023-06-15"
"888906121","SG","Active","Innove","ICCBS","20230614","2949.78","","0","2023-06-15"
"882813986","EG","Active","Innove","ICCBS","20230614","600.00","","0","2023-06-15"
"878772180","EG","Active","Innove","ICCBS","20230614","507588.84","","0","2023-06-15"
"884922467","EG","Active","Innove","ICCBS","20230614","30055.30","","0","2023-06-15"
"888858886","EG","Active","Innove","ICCBS","20230614","145708.32","","0","2023-06-15"
"874564129","SG","Active","Innove","ICCBS","20230614","172.77","","0","2023-06-15"
"870644359","EG","Active","Innove","ICCBS","20230614","83595.00","","0","2023-06-15"
"867232170","EG","Active","Innove","ICCBS","20230614","133.93","","0","2023-06-15"
"875802588","EG","Active","Innove","ICCBS","20230614","52941.60","","0","2023-06-15"
"871436323","EG","Active","Innove","ICCBS","20230614","120.00","","0","2023-06-15"
"868042300","Consumer","Historic","Innove","ICCBS","20230614","2370.00","","0","2023-06-15"
"888951270","SG","Active","Innove","ICCBS","20230614","76284.32","","0","2023-06-15"
"886976834","EG","Active","Innove","ICCBS","20230614","7840.00","","0","2023-06-15"
"832443090","EG","Active","Innove","ICCBS","20230614","700.00","","0","2023-06-15"
"880484263","EG","Active","Innove","ICCBS","20230614","467994.91","","0","2023-06-15"
"702670500","Consumer","Historic","Bayan","ICCBS","20230614","3897.00","","0","2023-06-15"
"876461185","EG","Active","Innove","ICCBS","20230614","1153611.00","","0","2023-06-15"
"888258844","SG","Active","Innove","ICCBS","20230614","1250.00","","0","2023-06-15"
"864844181","EG","Active","Innove","ICCBS","20230614","7056.00","","0","2023-06-15"
"612930459","SG","Active","Innove","ICCBS","20230614","35.68","","0","2023-06-15"
"874208633","EG","Active","Innove","ICCBS","20230614","19505.50","","0","2023-06-15"
"878445168","SG","Active","Innove","ICCBS","20230614","49000.00","","0","2023-06-15"
"879979188","EG","Active","Innove","ICCBS","20230614","22154.91","","0","2023-06-15"
"866624536","EG","Active","Innove","ICCBS","20230614","334368.00","","0","2023-06-15"
"851169599","EG","Active","Innove","ICCBS","20230614","255.00","","0","2023-06-15"
"888894965","EG","Active","Innove","ICCBS","20230614","66976.00","","0","2023-06-15"
"859055580","SG","Active","Innove","ICCBS","20230614","15510.00","","0","2023-06-15"
"849148671","EG","Active","Innove","ICCBS","20230614","2295.00","","0","2023-06-15"
"861572571","SG","Active","Innove","ICCBS","20230614","184.54","","0","2023-06-15"
"888930422","EG","Active","Innove","ICCBS","20230614","31977.00","","0","2023-06-15"
"879744885","EG","Active","Innove","ICCBS","20230614","236852.50","","0","2023-06-15"
"887518937","EG","Active","Innove","ICCBS","20230614","7840.00","","0","2023-06-15"
"711495881","Consumer","Active","Bayan","ICCBS","20230614","1400.00","","0","2023-06-15"
"707167274","SG","Active","Bayan","ICCBS","20230614","698.99","","0","2023-06-15"
"888929238","SG","Active","Innove","ICCBS","20230614","28000.00","","0","2023-06-15"
"877824590","EG","Active","Innove","ICCBS","20230614","24.96","","0","2023-06-15"
"869850705","EG","Active","Innove","ICCBS","20230614","22154.91","","0","2023-06-15"
"879145956","EG","Active","Innove","ICCBS","20230614","133.93","","0","2023-06-15"
"888954026","EG","Active","Innove","ICCBS","20230614","374672.79","","0","2023-06-15"
"700188875","SG","Active","Bayan","ICCBS","20230614","1597.99","","0","2023-06-15"
"844178140","EG","Active","Innove","ICCBS","20230614","44.59","","0","2023-06-15"
"887678379","Consumer","Active","Innove","ICCBS","20230614","500.00","","0","2023-06-15"
"885302541","EG","Active","Innove","ICCBS","20230614","18488.04","","0","2023-06-15"
"885886505","Consumer","Active","Innove","ICCBS","20230614","998.00","","0","2023-06-15"
"866772809","EG","Active","Innove","ICCBS","20230614","50157.00","","0","2023-06-15"
"881858853","SG","Active","Innove","ICCBS","20230614","50270.00","","0","2023-06-15"
"881144696","EG","Active","Innove","ICCBS","20230614","19505.50","","0","2023-06-15"
"873998180","Consumer","Historic","Innove","ICCBS","20230614","1300.00","","0","2023-06-15"
"885336231","EG","Active","Innove","ICCBS","20230614","110208.31","","0","2023-06-15"
"888261989","EG","Active","Innove","ICCBS","20230614","355.44","","0","2023-06-15"
"843613666","EG","Active","Innove","ICCBS","20230614","95.21","","0","2023-06-15"
"888930121","SG","Active","Innove","ICCBS","20230614","32340.00","","0","2023-06-15"
"878550675","EG","Active","Innove","ICCBS","20230614","267.86","","0","2023-06-15"
"859415785","EG","Active","Innove","ICCBS","20230614","35.36","","0","2023-06-15"
"853275202","Consumer","Active","Innove","ICCBS","20230614","3694.00","","0","2023-06-15"
"885710376","SG","Active","Innove","ICCBS","20230614","29120.00","","0","2023-06-15"
"831471392","SG","Active","Innove","ICCBS","20230614","2499.00","","0","2023-06-15"
"853505362","Consumer","Active","Innove","ICCBS","20230614","1398.00","","0","2023-06-15"
"862245914","EG","Active","Innove","ICCBS","20230614","1864.11","","0","2023-06-15"
"888355540","EG","Active","Innove","ICCBS","20230614","7840.00","","0","2023-06-15"
"879368064","EG","Active","Innove","ICCBS","20230614","436923.20","","0","2023-06-15"
"886258904","EG","Active","Innove","ICCBS","20230614","19957.41","","0","2023-06-15"
"880975144","SG","Active","Innove","ICCBS","20230614","1898.00","","0","2023-06-15"
"888647260","SG","Active","Innove","ICCBS","20230614","17.14","","0","2023-06-15"
"706454044","Consumer","Active","Bayan","ICCBS","20230614","2500.00","","0","2023-06-15"
"708255259","EG","Active","Bayan","ICCBS","20230614","1003.14","","0","2023-06-15"
"888427380","EG","Active","Innove","ICCBS","20230614","78022.00","","0","2023-06-15"
"887535079","EG","Active","Innove","ICCBS","20230614","15680.00","","0","2023-06-15"
"612094613","Consumer","Historic","Innove","ICCBS","20230614","155.64","","0","2023-06-15"
"851712908","Consumer","Active","Innove","ICCBS","20230614","1748.99","","0","2023-06-15"
"701397806","Consumer","Historic","Bayan","ICCBS","20230614","4350.00","","0","2023-06-15"
"837707088","EG","Active","Innove","ICCBS","20230614","915.54","","0","2023-06-15"
"873092070","EG","Active","Innove","ICCBS","20230614","100.00","","0","2023-06-15"
"881421618","SG","Active","Innove","ICCBS","20230614","29881.60","","0","2023-06-15"
"883130872","Consumer","Active","Innove","ICCBS","20230614","2598.00","","0","2023-06-15"
"885396530","Consumer","Active","Innove","ICCBS","20230614","999.00","","0","2023-06-15"
"885672355","EG","Active","Innove","ICCBS","20230614","197284.20","","0","2023-06-15"
"868452324","Consumer","Active","Innove","ICCBS","20230614","1398.00","","0","2023-06-15"
"888914890","SG","Active","Innove","ICCBS","20230614","3200.00","","0","2023-06-15"
"847286887","EG","Active","Innove","ICCBS","20230614","28080.36","","0","2023-06-15"
"869476473","EG","Active","Innove","ICCBS","20230614","3218.64","","0","2023-06-15"
"844622323","Consumer","Historic","Innove","ICCBS","20230614","6035.10","","0","2023-06-15"
"843128255","EG","Active","Innove","ICCBS","20230614","5015.70","","0","2023-06-15"
"709490546","SG","Active","Bayan","ICCBS","20230614","899.00","","0","2023-06-15"
"888208287","Consumer","Active","Innove","ICCBS","20230614","2997.99","","0","2023-06-15"
"884170450","EG","Active","Innove","ICCBS","20230614","1060.00","","0","2023-06-15"
"100882740","Consumer","Active","Innove","ICCBS","20230614","1050.00","","0","2023-06-15"
"879893184","EG","Active","Innove","ICCBS","20230614","19505.50","","0","2023-06-15"
"878651449","EG","Active","Innove","ICCBS","20230614","74.26","","0","2023-06-15"
"874888900","SG","Active","Innove","ICCBS","20230614","6647.19","","0","2023-06-15"
"888917080","SG","Active","Innove","ICCBS","20230614","409.34","","0","2023-06-15"
"885603282","EG","Active","Innove","ICCBS","20230614","133614.91","","0","2023-06-15"
"840066046","EG","Active","Innove","ICCBS","20230614","1000.00","","0","2023-06-15"
"830221553","Consumer","Historic","Innove","ICCBS","20230614","2001.63","","0","2023-06-15"
"874054977","EG","Active","Innove","ICCBS","20230614","16161.70","","0","2023-06-15"
"887469477","SG","Active","Innove","ICCBS","20230614","449.32","","0","2023-06-15"
"848857441","Consumer","Historic","Innove","ICCBS","20230614","6043.00","","0","2023-06-15"
"863462389","Consumer","Active","Innove","ICCBS","20230614","954.40","","0","2023-06-15"
"876827372","EG","Active","Innove","ICCBS","20230614","114246.50","","0","2023-06-15"
"887297699","EG","Active","Innove","ICCBS","20230614","55000.00","","0","2023-06-15"
"882305967","EG","Active","Innove","ICCBS","20230614","74800.00","","0","2023-06-15"
"888908730","SG","Active","Innove","ICCBS","20230614","206266.25","","0","2023-06-15"
"888807782","Consumer","Active","Innove","ICCBS","20230614","1300.00","","0","2023-06-15"
"888859557","EG","Active","Innove","ICCBS","20230614","71334.40","","0","2023-06-15"
"702775739","SG","Active","Bayan","ICCBS","20230614","1400.00","","0","2023-06-15"
"888931535","EG","Active","Innove","ICCBS","20230614","319890.20","","0","2023-06-15"
"877741457","EG","Active","Innove","ICCBS","20230614","16056.70","","0","2023-06-15"
"879970907","EG","Active","Innove","ICCBS","20230614","500.00","","0","2023-06-15"
"886236520","EG","Active","Innove","ICCBS","20230614","27829.89","","0","2023-06-15"
"610948793","EG","Active","Innove","ICCBS","20230614","15.86","","0","2023-06-15"
"830527401","EG","Active","Innove","ICCBS","20230614","3349.45","","0","2023-06-15"
"888907246","EG","Active","Innove","ICCBS","20230614","37339.10","","0","2023-06-15"
"882308933","EG","Active","Innove","ICCBS","20230614","131250.00","","0","2023-06-15"
"875329730","EG","Active","Innove","ICCBS","20230614","122468.91","","0","2023-06-15"
"709273146","SG","Active","Bayan","ICCBS","20230614","899.00","","0","2023-06-15"
"888264586","EG","Active","Innove","ICCBS","20230614","28044.38","","0","2023-06-15"
"871208105","Consumer","Historic","Innove","ICCBS","20230614","51.00","","0","2023-06-15"
"878922057","EG","Active","Innove","ICCBS","20230614","27865.00","","0","2023-06-15"
"700583920","EG","Active","Bayan","ICCBS","20230614","58.03","","0","2023-06-15"
"852600238","Consumer","Historic","Innove","ICCBS","20230614","1324.00","","0","2023-06-15"
"888858653","EG","Active","Innove","ICCBS","20230614","139325.00","","0","2023-06-15"
"885431664","Consumer","Historic","Innove","ICCBS","20230614","1300.00","","0","2023-06-15"
"832682261","Consumer","Active","Innove","ICCBS","20230614","1410.49","","0","2023-06-15"
"887851212","EG","Active","Innove","ICCBS","20230614","120.00","","0","2023-06-15"
"879517338","Consumer","Historic","Innove","ICCBS","20230614","5288.00","","0","2023-06-15"
"862767697","Consumer","Active","Innove","ICCBS","20230614","1300.00","","0","2023-06-15"
"840831258","Consumer","Historic","Innove","ICCBS","20230614","1803.00","","0","2023-06-15"
"888243972","EG","Active","Innove","ICCBS","20230614","760.00","","0","2023-06-15"
"888912754","EG","Active","Innove","ICCBS","20230614","57959.20","","0","2023-06-15"
"851153147","EG","Active","Innove","ICCBS","20230614","50.45","","0","2023-06-15"
"887922878","Consumer","Active","Innove","ICCBS","20230614","1697.99","","0","2023-06-15"
"702138911","Consumer","Active","Bayan","ICCBS","20230614","1597.99","","0","2023-06-15"
"888647143","EG","Active","Innove","ICCBS","20230614","177778.70","","0","2023-06-15"
"888938849","SG","Active","Innove","ICCBS","20230614","479260.80","","0","2023-06-15"
"700170780","Consumer","Active","Bayan","ICCBS","20230614","1597.99","","0","2023-06-15"
"837533975","EG","Active","Innove","ICCBS","20230614","8046.29","","0","2023-06-15"
"888842133","SG","Active","Innove","ICCBS","20230614","38750.71","","0","2023-06-15"
"700583931","EG","Active","Bayan","ICCBS","20230614","22.16","","0","2023-06-15"
"888111914","SG","Active","Innove","ICCBS","20230614","1898.00","","0","2023-06-15"
"856796260","EG","Active","Innove","ICCBS","20230614","11000.00","","0","2023-06-15"
"850112898","EG","Active","Innove","ICCBS","20230614","1226.50","","0","2023-06-15"
"887053890","Consumer","Historic","Innove","ICCBS","20230614","300.00","","0","2023-06-15"
"878615150","EG","Active","Innove","ICCBS","20230614","44000.00","","0","2023-06-15"
"883892240","EG","Active","Innove","ICCBS","20230614","132000.00","","0","2023-06-15"
"832425428","Consumer","Active","Innove","ICCBS","20230614","820.00","","0","2023-06-15"
"872701907","SG","Active","Innove","ICCBS","20230614","2400.00","","0","2023-06-15"
"848294418","Consumer","Active","Innove","ICCBS","20230614","1697.99","","0","2023-06-15"
"844947560","EG","Active","Innove","ICCBS","20230614","1060.00","","0","2023-06-15"
"840142072","EG","Active","Innove","ICCBS","20230614","803.95","","0","2023-06-15"
"876947124","SG","Historic","Innove","ICCBS","20230614","6664.97","","0","2023-06-15"
"887008962","SG","Active","Innove","ICCBS","20230614","192.51","","0","2023-06-15"
"888905529","SG","Active","Innove","ICCBS","20230614","815.82","","0","2023-06-15"
"883667073","SG","Active","Innove","ICCBS","20230614","413.27","","0","2023-06-15"
"610005190","Consumer","Active","Innove","ICCBS","20230614","1100.00","","0","2023-06-15"
"888904940","EG","Active","Innove","ICCBS","20230614","35416.42","","0","2023-06-15"
"879153827","EG","Active","Innove","ICCBS","20230614","133.93","","0","2023-06-15"
"886900827","Consumer","Active","Innove","ICCBS","20230614","999.00","","0","2023-06-15"
"883273060","SG","Active","Innove","ICCBS","20230614","2020.00","","0","2023-06-15"
"878034484","Consumer","Active","Innove","ICCBS","20230614","2598.00","","0","2023-06-15"
"846224469","Consumer","Active","Innove","ICCBS","20230614","2997.99","","0","2023-06-15"
"888623655","SG","Active","Innove","ICCBS","20230614","516.75","","0","2023-06-15"
"837379931","EG","Active","Innove","ICCBS","20230614","38758.82","","0","2023-06-15"
"881947407","EG","Active","Innove","ICCBS","20230614","147321.43","","0","2023-06-15"
"888902263","EG","Active","Innove","ICCBS","20230614","1100.00","","0","2023-06-15"
"884668805","Consumer","Active","Innove","ICCBS","20230614","1299.00","","0","2023-06-15"
"876459036","EG","Active","Innove","ICCBS","20230614","445840.00","","0","2023-06-15"
"876539085","EG","Active","Innove","ICCBS","20230614","22154.91","","0","2023-06-15"
"881945463","EG","Active","Innove","ICCBS","20230614","20000.00","","0","2023-06-15"
"888927405","EG","Active","Innove","ICCBS","20230614","881774.55","","0","2023-06-15"
"879152855","EG","Active","Innove","ICCBS","20230614","133.93","","0","2023-06-15"
"882450323","EG","Active","Innove","ICCBS","20230614","50404.86","","0","2023-06-15"
"871696065","EG","Active","Innove","ICCBS","20230614","77.80","","0","2023-06-15"
"887914368","SG","Active","Innove","ICCBS","20230614","3796.00","","0","2023-06-15"
"707581160","Consumer","Active","Bayan","ICCBS","20230614","2191.96","","0","2023-06-15"
"868549275","Consumer","Active","Innove","ICCBS","20230614","1800.00","","0","2023-06-15"
"882312160","EG","Active","Innove","ICCBS","20230614","200628.00","","0","2023-06-15"
"840479793","SG","Active","Innove","ICCBS","20230614","71500.00","","0","2023-06-15"
"882265180","Consumer","Active","Innove","ICCBS","20230614","5797.98","","0","2023-06-15"
"831113804","EG","Active","Innove","ICCBS","20230614","4830.00","","0","2023-06-15"
"846958023","EG","Active","Innove","ICCBS","20230614","12908.00","","0","2023-06-15"
"886864916","Consumer","Active","Innove","ICCBS","20230614","999.00","","0","2023-06-15"
"873798502","EG","Active","Innove","ICCBS","20230614","11110.89","","0","2023-06-15"
"887981960","Consumer","Active","Innove","ICCBS","20230614","1400.00","","0","2023-06-15"
"859690040","EG","Active","Innove","ICCBS","20230614","1120.00","","0","2023-06-15"
"860754473","EG","Active","Innove","ICCBS","20230614","133.93","","0","2023-06-15"
"871572070","EG","Active","Innove","ICCBS","20230614","34574.10","","0","2023-06-15"
"888912766","EG","Active","Innove","ICCBS","20230614","46813.20","","0","2023-06-15"
"888943860","SG","Active","Innove","ICCBS","20230614","91733.74","","0","2023-06-15"
"876627269","EG","Active","Innove","ICCBS","20230614","89278.47","","0","2023-06-15"
"842472333","EG","Active","Innove","ICCBS","20230614","789.10","","0","2023-06-15"
"884365820","EG","Active","Innove","ICCBS","20230614","206201.00","","0","2023-06-15"
"853016081","SG","Active","Innove","ICCBS","20230614","51092.30","","0","2023-06-15"
"835097077","SG","Historic","Innove","ICCBS","20230614","24.25","","0","2023-06-15"
"888956738","SG","Active","Innove","ICCBS","20230614","4225.23","","0","2023-06-15"
"853592521","Consumer","Active","Innove","ICCBS","20230614","1864.00","","0","2023-06-15"
"843866504","EG","Active","Innove","ICCBS","20230614","887.99","","0","2023-06-15"
"872697350","EG","Active","Innove","ICCBS","20230614","25043.39","","0","2023-06-15"
"879146770","EG","Active","Innove","ICCBS","20230614","133.93","","0","2023-06-15"
"874670934","Consumer","Historic","Innove","ICCBS","20230614","2742.00","","0","2023-06-15"
"888893540","EG","Active","Innove","ICCBS","20230614","240892.93","","0","2023-06-15"
"100807474","Consumer","Active","Innove","ICCBS","20230614","1800.00","","0","2023-06-15"
"847629956","EG","Active","Innove","ICCBS","20230614","1467.20","","0","2023-06-15"
"859167889","EG","Active","Innove","ICCBS","20230614","111424.33","","0","2023-06-15"
"103128735","EG","Active","Innove","ICCBS","20230614","1467.20","","0","2023-06-15"
"875166881","SG","Active","Innove","ICCBS","20230614","780.00","","0","2023-06-15"
"888938468","EG","Active","Innove","ICCBS","20230614","88701.76","","0","2023-06-15"
"102462715","SG","Active","Innove","ICCBS","20230614","35.68","","0","2023-06-15"
"886565246","Consumer","Active","Innove","ICCBS","20230614","1420.00","","0","2023-06-15"
"830135510","Consumer","Active","Innove","ICCBS","20230614","300.00","","0","2023-06-15"
"879916534","EG","Active","Innove","ICCBS","20230614","28768.30","","0","2023-06-15"
"887518673","EG","Active","Innove","ICCBS","20230614","560.00","","0","2023-06-15"
"887007420","Consumer","Active","Innove","ICCBS","20230614","998.00","","0","2023-06-15"
"876136850","EG","Active","Innove","ICCBS","20230614","133614.91","","0","2023-06-15"
"864296203","EG","Active","Innove","ICCBS","20230614","129008.27","","0","2023-06-15"
"865347217","EG","Active","Innove","ICCBS","20230614","2748.02","","0","2023-06-15"
"860524852","Consumer","Active","Innove","ICCBS","20230614","1299.00","","0","2023-06-15"
"888908347","EG","Active","Innove","ICCBS","20230614","188193.53","","0","2023-06-15"
"831454475","Consumer","Historic","Innove","ICCBS","20230614","2018.54","","0","2023-06-15"
"888593911","SG","Active","Innove","ICCBS","20230614","23475.21","","0","2023-06-15"
"888906956","SG","Active","Innove","ICCBS","20230614","825.80","","0","2023-06-15"
"831672510","Consumer","Active","Innove","ICCBS","20230614","599.00","","0","2023-06-15"
"887247278","EG","Active","Innove","ICCBS","20230614","40647.23","","0","2023-06-15"
"888888610","EG","Active","Innove","ICCBS","20230614","14790.00","","0","2023-06-15"
"882125330","EG","Active","Innove","ICCBS","20230614","222920.00","","0","2023-06-15"
"709815787","EG","Active","Bayan","ICCBS","20230614","1399.00","","0","2023-06-15"
"875093651","EG","Active","Innove","ICCBS","20230614","210.60","","0","2023-06-15"
"710009074","Consumer","Active","Bayan","ICCBS","20230614","1500.00","","0","2023-06-15"
"888931836","EG","Active","Innove","ICCBS","20230614","3214.73","","0","2023-06-15"
"887554426","SG","Active","Innove","ICCBS","20230614","117600.00","","0","2023-06-15"
"888894480","EG","Active","Innove","ICCBS","20230614","614144.60","","0","2023-06-15"
"869475870","EG","Active","Innove","ICCBS","20230614","2827.88","","0","2023-06-15"
"888849700","EG","Active","Innove","ICCBS","20230614","2229007.73","","0","2023-06-15"
"876143017","SG","Active","Innove","ICCBS","20230614","60.68","","0","2023-06-15"
"888836568","Consumer","Active","Innove","ICCBS","20230614","1699.00","","0","2023-06-15"
"850348162","EG","Active","Innove","ICCBS","20230614","3094.65","","0","2023-06-15"
"879655968","EG","Active","Innove","ICCBS","20230614","49565.62","","0","2023-06-15"
"879146480","EG","Active","Innove","ICCBS","20230614","133.93","","0","2023-06-15"
"853400160","EG","Active","Innove","ICCBS","20230614","822437.71","","0","2023-06-15"
"865480237","EG","Active","Innove","ICCBS","20230614","108673.50","","0","2023-06-15"
"888931560","SG","Active","Innove","ICCBS","20230614","24776.79","","0","2023-06-15"
"846435410","EG","Active","Innove","ICCBS","20230614","872.13","","0","2023-06-15"
"888561476","EG","Active","Innove","ICCBS","20230614","177778.70","","0","2023-06-15"
"877140500","EG","Active","Innove","ICCBS","20230614","10400.00","","0","2023-06-15"
"887190811","SG","Active","Innove","ICCBS","20230614","75040.00","","0","2023-06-15"
"888952198","SG","Active","Innove","ICCBS","20230614","28000.00","","0","2023-06-15"
"854262401","EG","Active","Innove","ICCBS","20230614","2453.72","","0","2023-06-15"
"888893028","EG","Active","Innove","ICCBS","20230614","741209.00","","0","2023-06-15"
"706377821","SG","Active","Bayan","ICCBS","20230614","1097.99","","0","2023-06-15"
"833186226","Consumer","Active","Innove","ICCBS","20230614","1797.99","","0","2023-06-15"
"884067700","EG","Active","Innove","ICCBS","20230614","305.27","","0","2023-06-15"
"860843316","EG","Active","Innove","ICCBS","20230614","24.17","","0","2023-06-15"
"886515697","EG","Active","Innove","ICCBS","20230614","201742.60","","0","2023-06-15"
"888905900","SG","Active","Innove","ICCBS","20230614","50400.00","","0","2023-06-15"
"888808176","Consumer","Active","Innove","ICCBS","20230614","999.00","","0","2023-06-15"
"888917288","SG","Active","Innove","ICCBS","20230614","1286.25","","0","2023-06-15"
"867021041","EG","Active","Innove","ICCBS","20230614","89168.00","","0","2023-06-15"
"876769493","EG","Active","Innove","ICCBS","20230614","24.96","","0","2023-06-15"
"888891385","EG","Active","Innove","ICCBS","20230614","246400.00","","0","2023-06-15"
"830213448","Consumer","Active","Innove","ICCBS","20230614","599.00","","0","2023-06-15"
"877327953","SG","Active","Innove","ICCBS","20230614","36463.84","","0","2023-06-15"
"876463861","EG","Active","Innove","ICCBS","20230614","36224.50","","0","2023-06-15"
"830785819","Consumer","Active","Innove","ICCBS","20230614","2146.98","","0","2023-06-15"
"864787298","SG","Active","Innove","ICCBS","20230614","1933.04","","0","2023-06-15"
"888893680","EG","Active","Innove","ICCBS","20230614","129711.58","","0","2023-06-15"
"847355351","EG","Active","Innove","ICCBS","20230614","110313.58","","0","2023-06-15"
"831277210","EG","Active","Innove","ICCBS","20230614","1520.00","","0","2023-06-15"
"887511057","EG","Active","Innove","ICCBS","20230614","1682.61","","0","2023-06-15"
"883702610","SG","Active","Innove","ICCBS","20230614","70.78","","0","2023-06-15"
"870239919","Consumer","Historic","Innove","ICCBS","20230614","200.00","","0","2023-06-15"
"880264635","EG","Active","Innove","ICCBS","20230614","99310.86","","0","2023-06-15"
"888888485","EG","Active","Innove","ICCBS","20230614","203414.50","","0","2023-06-15"
"880069878","EG","Active","Innove","ICCBS","20230614","127621.70","","0","2023-06-15"
"863687658","EG","Active","Innove","ICCBS","20230614","133.93","","0","2023-06-15"
"882333143","Consumer","Historic","Innove","ICCBS","20230614","1400.00","","0","2023-06-15"
"884521150","Consumer","Active","Innove","ICCBS","20230614","1797.99","","0","2023-06-15"
"888889840","EG","Active","Innove","ICCBS","20230614","2661.67","","0","2023-06-15"
"887511113","EG","Active","Innove","ICCBS","20230614","611.81","","0","2023-06-15"
"888889814","EG","Active","Innove","ICCBS","20230614","7840.00","","0","2023-06-15"
"837875902","Consumer","Historic","Innove","ICCBS","20230614","3483.51","","0","2023-06-15"
"868364084","EG","Active","Innove","ICCBS","20230614","51932.16","","0","2023-06-15"
"711337473","EG","Active","Bayan","ICCBS","20230614","1898.99","","0","2023-06-15"
"857813325","SG","Active","Innove","ICCBS","20230614","165300.00","","0","2023-06-15"
"880564005","EG","Active","Innove","ICCBS","20230614","127621.70","","0","2023-06-15"
"881150107","EG","Active","Innove","ICCBS","20230614","58460.77","","0","2023-06-15"
"888893606","EG","Active","Innove","ICCBS","20230614","412959.30","","0","2023-06-15"
"611112729","EG","Active","Innove","ICCBS","20230614","17.20","","0","2023-06-15"
"888887058","EG","Active","Innove","ICCBS","20230614","114246.50","","0","2023-06-15"
"100249263","Consumer","Active","Innove","ICCBS","20230614","1797.99","","0","2023-06-15"
"888825462","EG","Active","Innove","ICCBS","20230614","159913.89","","0","2023-06-15"
"884242578","EG","Active","Innove","ICCBS","20230614","350541.70","","0","2023-06-15"
"700561404","SG","Active","Bayan","ICCBS","20230614","878.00","","0","2023-06-15"
"847483742","EG","Active","Innove","ICCBS","20230614","2256.94","","0","2023-06-15"
"879317899","Consumer","Active","Innove","ICCBS","20230614","1997.00","","0","2023-06-15"
"864639056","EG","Active","Innove","ICCBS","20230614","1226.50","","0","2023-06-15"
"100363035","Consumer","Active","Innove","ICCBS","20230614","1919.02","","0","2023-06-15"
"708472600","EG","Active","Bayan","ICCBS","20230614","16.05","","0","2023-06-15"
"839700046","Consumer","Active","Innove","ICCBS","20230614","720.00","","0","2023-06-15"
"611822451","SG","Active","Innove","ICCBS","20230614","2898.99","","0","2023-06-15"
"888930495","EG","Active","Innove","ICCBS","20230614","68864.40","","0","2023-06-15"
"881961727","EG","Active","Innove","ICCBS","20230614","74.26","","0","2023-06-15"
"874494878","EG","Active","Innove","ICCBS","20230614","61303.00","","0","2023-06-15"
"888959218","SG","Active","Innove","ICCBS","20230614","2454678.05","","0","2023-06-15"
"868185070","EG","Active","Innove","ICCBS","20230614","31208.80","","0","2023-06-15"
"711304429","Consumer","Historic","Bayan","ICCBS","20230614","1800.00","","0","2023-06-15"
"887914288","SG","Active","Innove","ICCBS","20230614","1898.00","","0","2023-06-15"
"820003972","EG","Active","Innove","ICCBS","20230614","300.00","","0","2023-06-15"
"700092110","Consumer","Historic","Bayan","ICCBS","20230614","623.91","","0","2023-06-15"
"885678648","SG","Historic","Innove","ICCBS","20230614","2998.00","","0","2023-06-15"
"882889944","EG","Active","Innove","ICCBS","20230614","117680.58","","0","2023-06-15"
"103911234","Consumer","Active","Innove","ICCBS","20230614","1797.99","","0","2023-06-15"
"879247463","EG","Active","Innove","ICCBS","20230614","52326.36","","0","2023-06-15"
"874629833","SG","Active","Innove","ICCBS","20230614","360.00","","0","2023-06-15"
"706010156","Consumer","Historic","Bayan","ICCBS","20230614","1620.00","","0","2023-06-15"
"885964470","Consumer","Historic","Innove","ICCBS","20230614","10.00","","0","2023-06-15"
"879635853","SG","Active","Innove","ICCBS","20230614","55936.78","","0","2023-06-15"
"876068166","SG","Active","Innove","ICCBS","20230614","700.00","","0","2023-06-15"
"888805715","EG","Active","Innove","ICCBS","20230614","5316.27","","0","2023-06-15"
